
korean-like-matrix.elf:     file format elf32-littlearm


Disassembly of section .init:

000100d4 <_init>:
   100d4:	e92d4001 	push	{r0, lr}
   100d8:	e8bd4001 	pop	{r0, lr}
   100dc:	e12fff1e 	bx	lr

Disassembly of section .text:

000100e0 <exit>:
   100e0:	01a00000 	moveq	r0, r0
   100e4:	e589f000 	str	pc, [r9]
   100e8:	e92d4010 	push	{r4, lr}
   100ec:	e1a04000 	mov	r4, r0
   100f0:	eb00022b 	bl	109a4 <__funcs_on_exit>
   100f4:	eb000217 	bl	10958 <__libc_exit_fini>
   100f8:	eb000229 	bl	109a4 <__funcs_on_exit>
   100fc:	e1a00004 	mov	r0, r4
   10100:	e1a0e00f 	mov	lr, pc
   10104:	ea000382 	b	10f14 <_Exit>

00010108 <_start>:
   10108:	e3a0b000 	mov	fp, #0
   1010c:	e3a0e000 	mov	lr, #0
   10110:	e59f1010 	ldr	r1, [pc, #16]	; 10128 <_start+0x20>
   10114:	e08f1001 	add	r1, pc, r1
   10118:	e1a0000d 	mov	r0, sp
   1011c:	e3c0c00f 	bic	ip, r0, #15
   10120:	e1a0d00c 	mov	sp, ip
   10124:	eb000000 	bl	1012c <_start_c>
   10128:	fffefee4 	.word	0xfffefee4

0001012c <_start_c>:
   1012c:	e92d4800 	push	{fp, lr}
   10130:	e1a0b00d 	mov	fp, sp
   10134:	e24dd008 	sub	sp, sp, #8
   10138:	e1a02000 	mov	r2, r0
   1013c:	e3013b08 	movw	r3, #6920	; 0x1b08
   10140:	e4921004 	ldr	r1, [r2], #4
   10144:	e3403001 	movt	r3, #1
   10148:	e3a00000 	mov	r0, #0
   1014c:	e58d3000 	str	r3, [sp]
   10150:	e30030d4 	movw	r3, #212	; 0xd4
   10154:	e58d0004 	str	r0, [sp, #4]
   10158:	e3000274 	movw	r0, #628	; 0x274
   1015c:	e3403001 	movt	r3, #1
   10160:	e3400001 	movt	r0, #1
   10164:	e1a0e00f 	mov	lr, pc
   10168:	ea0001e8 	b	10910 <__libc_start_main>

0001016c <deregister_tm_clones>:
   1016c:	e59f3024 	ldr	r3, [pc, #36]	; 10198 <deregister_tm_clones+0x2c>
   10170:	e3020008 	movw	r0, #8200	; 0x2008
   10174:	e3400002 	movt	r0, #2
   10178:	e0433000 	sub	r3, r3, r0
   1017c:	e3530006 	cmp	r3, #6
   10180:	912fff1e 	bxls	lr
   10184:	e3003000 	movw	r3, #0
   10188:	e3403000 	movt	r3, #0
   1018c:	e3530000 	cmp	r3, #0
   10190:	012fff1e 	bxeq	lr
   10194:	e12fff13 	bx	r3
   10198:	0002200b 	.word	0x0002200b

0001019c <register_tm_clones>:
   1019c:	e3023008 	movw	r3, #8200	; 0x2008
   101a0:	e3020008 	movw	r0, #8200	; 0x2008
   101a4:	e3403002 	movt	r3, #2
   101a8:	e3400002 	movt	r0, #2
   101ac:	e0431000 	sub	r1, r3, r0
   101b0:	e1a01141 	asr	r1, r1, #2
   101b4:	e0811fa1 	add	r1, r1, r1, lsr #31
   101b8:	e1b010c1 	asrs	r1, r1, #1
   101bc:	012fff1e 	bxeq	lr
   101c0:	e3003000 	movw	r3, #0
   101c4:	e3403000 	movt	r3, #0
   101c8:	e3530000 	cmp	r3, #0
   101cc:	012fff1e 	bxeq	lr
   101d0:	e12fff13 	bx	r3

000101d4 <__do_global_dtors_aux>:
   101d4:	e92d4010 	push	{r4, lr}
   101d8:	e3024008 	movw	r4, #8200	; 0x2008
   101dc:	e3404002 	movt	r4, #2
   101e0:	e5d43000 	ldrb	r3, [r4]
   101e4:	e3530000 	cmp	r3, #0
   101e8:	18bd8010 	popne	{r4, pc}
   101ec:	ebffffde 	bl	1016c <deregister_tm_clones>
   101f0:	e3003000 	movw	r3, #0
   101f4:	e3403000 	movt	r3, #0
   101f8:	e3530000 	cmp	r3, #0
   101fc:	0a000002 	beq	1020c <__do_global_dtors_aux+0x38>
   10200:	e3010b6c 	movw	r0, #7020	; 0x1b6c
   10204:	e3400001 	movt	r0, #1
   10208:	e320f000 	nop	{0}
   1020c:	e3a03001 	mov	r3, #1
   10210:	e5c43000 	strb	r3, [r4]
   10214:	e8bd8010 	pop	{r4, pc}

00010218 <frame_dummy>:
   10218:	e3003000 	movw	r3, #0
   1021c:	e92d4010 	push	{r4, lr}
   10220:	e3403000 	movt	r3, #0
   10224:	e3530000 	cmp	r3, #0
   10228:	0a000004 	beq	10240 <frame_dummy+0x28>
   1022c:	e302100c 	movw	r1, #8204	; 0x200c
   10230:	e3010b6c 	movw	r0, #7020	; 0x1b6c
   10234:	e3401002 	movt	r1, #2
   10238:	e3400001 	movt	r0, #1
   1023c:	e320f000 	nop	{0}
   10240:	e3010ffc 	movw	r0, #8188	; 0x1ffc
   10244:	e3400002 	movt	r0, #2
   10248:	e5903000 	ldr	r3, [r0]
   1024c:	e3530000 	cmp	r3, #0
   10250:	1a000001 	bne	1025c <frame_dummy+0x44>
   10254:	e8bd4010 	pop	{r4, lr}
   10258:	eaffffcf 	b	1019c <register_tm_clones>
   1025c:	e3003000 	movw	r3, #0
   10260:	e3403000 	movt	r3, #0
   10264:	e3530000 	cmp	r3, #0
   10268:	0afffff9 	beq	10254 <frame_dummy+0x3c>
   1026c:	e12fff33 	blx	r3
   10270:	eafffff7 	b	10254 <frame_dummy+0x3c>

00010274 <main>:
   10274:	01a00000 	moveq	r0, r0
   10278:	e589f000 	str	pc, [r9]
   1027c:	e92d4800 	push	{fp, lr}
   10280:	e1a0b00d 	mov	fp, sp
   10284:	e24dd010 	sub	sp, sp, #16
   10288:	e3002000 	movw	r2, #0
   1028c:	e589b000 	str	fp, [r9]
   10290:	e50b2004 	str	r2, [fp, #-4]
   10294:	e589d000 	str	sp, [r9]
   10298:	e58d0008 	str	r0, [sp, #8]
   1029c:	e589d000 	str	sp, [r9]
   102a0:	e58d1004 	str	r1, [sp, #4]
   102a4:	eb000002 	bl	102b4 <app_matrix>
   102a8:	e3000000 	movw	r0, #0
   102ac:	e1a0d00b 	mov	sp, fp
   102b0:	e8bd8800 	pop	{fp, pc}

000102b4 <app_matrix>:
   102b4:	01a00000 	moveq	r0, r0
   102b8:	e589f000 	str	pc, [r9]
   102bc:	e92d4800 	push	{fp, lr}
   102c0:	e1a0b00d 	mov	fp, sp
   102c4:	e24dd030 	sub	sp, sp, #48	; 0x30
   102c8:	e3000000 	movw	r0, #0
   102cc:	e3001020 	movw	r1, #32
   102d0:	e589b000 	str	fp, [r9]
   102d4:	e50b1010 	str	r1, [fp, #-16]
   102d8:	e589b000 	str	fp, [r9]
   102dc:	e50b1014 	str	r1, [fp, #-20]	; 0xffffffec
   102e0:	e589d000 	str	sp, [r9]
   102e4:	e58d1018 	str	r1, [sp, #24]
   102e8:	e589d000 	str	sp, [r9]
   102ec:	e58d1014 	str	r1, [sp, #20]
   102f0:	eb00021e 	bl	10b70 <time>
   102f4:	eb0001ad 	bl	109b0 <srand>
   102f8:	e3000000 	movw	r0, #0
   102fc:	e589b000 	str	fp, [r9]
   10300:	e50b0004 	str	r0, [fp, #-4]
   10304:	01a00000 	moveq	r0, r0
   10308:	e589f000 	str	pc, [r9]
   1030c:	e589b000 	str	fp, [r9]
   10310:	e51b0004 	ldr	r0, [fp, #-4]
   10314:	e589b000 	str	fp, [r9]
   10318:	e51b1010 	ldr	r1, [fp, #-16]
   1031c:	e1500001 	cmp	r0, r1
   10320:	2a000033 	bcs	103f4 <app_matrix+0x140>
   10324:	01a00000 	moveq	r0, r0
   10328:	e589f000 	str	pc, [r9]
   1032c:	e3000000 	movw	r0, #0
   10330:	e589b000 	str	fp, [r9]
   10334:	e50b0008 	str	r0, [fp, #-8]
   10338:	01a00000 	moveq	r0, r0
   1033c:	e589f000 	str	pc, [r9]
   10340:	e589b000 	str	fp, [r9]
   10344:	e51b0008 	ldr	r0, [fp, #-8]
   10348:	e589b000 	str	fp, [r9]
   1034c:	e51b1014 	ldr	r1, [fp, #-20]	; 0xffffffec
   10350:	e1500001 	cmp	r0, r1
   10354:	2a00001b 	bcs	103c8 <app_matrix+0x114>
   10358:	01a00000 	moveq	r0, r0
   1035c:	e589f000 	str	pc, [r9]
   10360:	e3000002 	movw	r0, #2
   10364:	e589d000 	str	sp, [r9]
   10368:	e58d0010 	str	r0, [sp, #16]
   1036c:	eb000198 	bl	109d4 <rand>
   10370:	e1a0efc0 	asr	lr, r0, #31
   10374:	e080ec2e 	add	lr, r0, lr, lsr #24
   10378:	e7c7e01f 	bfc	lr, #0, #8
   1037c:	e040000e 	sub	r0, r0, lr
   10380:	e589b000 	str	fp, [r9]
   10384:	e51be004 	ldr	lr, [fp, #-4]
   10388:	e3021024 	movw	r1, #8228	; 0x2024
   1038c:	e3401002 	movt	r1, #2
   10390:	e081138e 	add	r1, r1, lr, lsl #7
   10394:	e589b000 	str	fp, [r9]
   10398:	e51be008 	ldr	lr, [fp, #-8]
   1039c:	e081110e 	add	r1, r1, lr, lsl #2
   103a0:	e5891000 	str	r1, [r9]
   103a4:	e5810000 	str	r0, [r1]
   103a8:	01a00000 	moveq	r0, r0
   103ac:	e589f000 	str	pc, [r9]
   103b0:	e589b000 	str	fp, [r9]
   103b4:	e51b0008 	ldr	r0, [fp, #-8]
   103b8:	e2800001 	add	r0, r0, #1
   103bc:	e589b000 	str	fp, [r9]
   103c0:	e50b0008 	str	r0, [fp, #-8]
   103c4:	eaffffdb 	b	10338 <app_matrix+0x84>
   103c8:	01a00000 	moveq	r0, r0
   103cc:	e589f000 	str	pc, [r9]
   103d0:	eaffffff 	b	103d4 <app_matrix+0x120>
   103d4:	01a00000 	moveq	r0, r0
   103d8:	e589f000 	str	pc, [r9]
   103dc:	e589b000 	str	fp, [r9]
   103e0:	e51b0004 	ldr	r0, [fp, #-4]
   103e4:	e2800001 	add	r0, r0, #1
   103e8:	e589b000 	str	fp, [r9]
   103ec:	e50b0004 	str	r0, [fp, #-4]
   103f0:	eaffffc3 	b	10304 <app_matrix+0x50>
   103f4:	01a00000 	moveq	r0, r0
   103f8:	e589f000 	str	pc, [r9]
   103fc:	e3000000 	movw	r0, #0
   10400:	e589b000 	str	fp, [r9]
   10404:	e50b0004 	str	r0, [fp, #-4]
   10408:	01a00000 	moveq	r0, r0
   1040c:	e589f000 	str	pc, [r9]
   10410:	e589b000 	str	fp, [r9]
   10414:	e51b0004 	ldr	r0, [fp, #-4]
   10418:	e589d000 	str	sp, [r9]
   1041c:	e59d1018 	ldr	r1, [sp, #24]
   10420:	e1500001 	cmp	r0, r1
   10424:	2a000033 	bcs	104f8 <app_matrix+0x244>
   10428:	01a00000 	moveq	r0, r0
   1042c:	e589f000 	str	pc, [r9]
   10430:	e3000000 	movw	r0, #0
   10434:	e589b000 	str	fp, [r9]
   10438:	e50b0008 	str	r0, [fp, #-8]
   1043c:	01a00000 	moveq	r0, r0
   10440:	e589f000 	str	pc, [r9]
   10444:	e589b000 	str	fp, [r9]
   10448:	e51b0008 	ldr	r0, [fp, #-8]
   1044c:	e589d000 	str	sp, [r9]
   10450:	e59d1014 	ldr	r1, [sp, #20]
   10454:	e1500001 	cmp	r0, r1
   10458:	2a00001b 	bcs	104cc <app_matrix+0x218>
   1045c:	01a00000 	moveq	r0, r0
   10460:	e589f000 	str	pc, [r9]
   10464:	e3000002 	movw	r0, #2
   10468:	e589d000 	str	sp, [r9]
   1046c:	e58d000c 	str	r0, [sp, #12]
   10470:	eb000157 	bl	109d4 <rand>
   10474:	e1a0efc0 	asr	lr, r0, #31
   10478:	e080ec2e 	add	lr, r0, lr, lsr #24
   1047c:	e7c7e01f 	bfc	lr, #0, #8
   10480:	e040000e 	sub	r0, r0, lr
   10484:	e589b000 	str	fp, [r9]
   10488:	e51be004 	ldr	lr, [fp, #-4]
   1048c:	e3031024 	movw	r1, #12324	; 0x3024
   10490:	e3401002 	movt	r1, #2
   10494:	e081138e 	add	r1, r1, lr, lsl #7
   10498:	e589b000 	str	fp, [r9]
   1049c:	e51be008 	ldr	lr, [fp, #-8]
   104a0:	e081110e 	add	r1, r1, lr, lsl #2
   104a4:	e5891000 	str	r1, [r9]
   104a8:	e5810000 	str	r0, [r1]
   104ac:	01a00000 	moveq	r0, r0
   104b0:	e589f000 	str	pc, [r9]
   104b4:	e589b000 	str	fp, [r9]
   104b8:	e51b0008 	ldr	r0, [fp, #-8]
   104bc:	e2800001 	add	r0, r0, #1
   104c0:	e589b000 	str	fp, [r9]
   104c4:	e50b0008 	str	r0, [fp, #-8]
   104c8:	eaffffdb 	b	1043c <app_matrix+0x188>
   104cc:	01a00000 	moveq	r0, r0
   104d0:	e589f000 	str	pc, [r9]
   104d4:	eaffffff 	b	104d8 <app_matrix+0x224>
   104d8:	01a00000 	moveq	r0, r0
   104dc:	e589f000 	str	pc, [r9]
   104e0:	e589b000 	str	fp, [r9]
   104e4:	e51b0004 	ldr	r0, [fp, #-4]
   104e8:	e2800001 	add	r0, r0, #1
   104ec:	e589b000 	str	fp, [r9]
   104f0:	e50b0004 	str	r0, [fp, #-4]
   104f4:	eaffffc3 	b	10408 <app_matrix+0x154>
   104f8:	01a00000 	moveq	r0, r0
   104fc:	e589f000 	str	pc, [r9]
   10500:	e3000000 	movw	r0, #0
   10504:	e589b000 	str	fp, [r9]
   10508:	e50b0004 	str	r0, [fp, #-4]
   1050c:	01a00000 	moveq	r0, r0
   10510:	e589f000 	str	pc, [r9]
   10514:	e589b000 	str	fp, [r9]
   10518:	e51b0004 	ldr	r0, [fp, #-4]
   1051c:	e589b000 	str	fp, [r9]
   10520:	e51b1010 	ldr	r1, [fp, #-16]
   10524:	e1500001 	cmp	r0, r1
   10528:	2a000063 	bcs	106bc <app_matrix+0x408>
   1052c:	01a00000 	moveq	r0, r0
   10530:	e589f000 	str	pc, [r9]
   10534:	e3000000 	movw	r0, #0
   10538:	e589b000 	str	fp, [r9]
   1053c:	e50b0008 	str	r0, [fp, #-8]
   10540:	01a00000 	moveq	r0, r0
   10544:	e589f000 	str	pc, [r9]
   10548:	e589b000 	str	fp, [r9]
   1054c:	e51b0008 	ldr	r0, [fp, #-8]
   10550:	e589d000 	str	sp, [r9]
   10554:	e59d1014 	ldr	r1, [sp, #20]
   10558:	e1500001 	cmp	r0, r1
   1055c:	2a00004b 	bcs	10690 <app_matrix+0x3dc>
   10560:	01a00000 	moveq	r0, r0
   10564:	e589f000 	str	pc, [r9]
   10568:	e3000000 	movw	r0, #0
   1056c:	e3001002 	movw	r1, #2
   10570:	e589b000 	str	fp, [r9]
   10574:	e51b2004 	ldr	r2, [fp, #-4]
   10578:	e3043024 	movw	r3, #16420	; 0x4024
   1057c:	e3403002 	movt	r3, #2
   10580:	e0832382 	add	r2, r3, r2, lsl #7
   10584:	e589b000 	str	fp, [r9]
   10588:	e51b3008 	ldr	r3, [fp, #-8]
   1058c:	e0822103 	add	r2, r2, r3, lsl #2
   10590:	e5892000 	str	r2, [r9]
   10594:	e5820000 	str	r0, [r2]
   10598:	e589b000 	str	fp, [r9]
   1059c:	e50b000c 	str	r0, [fp, #-12]
   105a0:	e589d000 	str	sp, [r9]
   105a4:	e58d1008 	str	r1, [sp, #8]
   105a8:	01a00000 	moveq	r0, r0
   105ac:	e589f000 	str	pc, [r9]
   105b0:	e589b000 	str	fp, [r9]
   105b4:	e51b000c 	ldr	r0, [fp, #-12]
   105b8:	e589b000 	str	fp, [r9]
   105bc:	e51b1010 	ldr	r1, [fp, #-16]
   105c0:	e1500001 	cmp	r0, r1
   105c4:	2a000026 	bcs	10664 <app_matrix+0x3b0>
   105c8:	01a00000 	moveq	r0, r0
   105cc:	e589f000 	str	pc, [r9]
   105d0:	e3000002 	movw	r0, #2
   105d4:	e589b000 	str	fp, [r9]
   105d8:	e51b1004 	ldr	r1, [fp, #-4]
   105dc:	e3022024 	movw	r2, #8228	; 0x2024
   105e0:	e3402002 	movt	r2, #2
   105e4:	e0822381 	add	r2, r2, r1, lsl #7
   105e8:	e589b000 	str	fp, [r9]
   105ec:	e51b300c 	ldr	r3, [fp, #-12]
   105f0:	e5892000 	str	r2, [r9]
   105f4:	e7922103 	ldr	r2, [r2, r3, lsl #2]
   105f8:	e303c024 	movw	ip, #12324	; 0x3024
   105fc:	e340c002 	movt	ip, #2
   10600:	e08c3383 	add	r3, ip, r3, lsl #7
   10604:	e589b000 	str	fp, [r9]
   10608:	e51bc008 	ldr	ip, [fp, #-8]
   1060c:	e5893000 	str	r3, [r9]
   10610:	e793310c 	ldr	r3, [r3, ip, lsl #2]
   10614:	e0020392 	mul	r2, r2, r3
   10618:	e3043024 	movw	r3, #16420	; 0x4024
   1061c:	e3403002 	movt	r3, #2
   10620:	e0831381 	add	r1, r3, r1, lsl #7
   10624:	e081110c 	add	r1, r1, ip, lsl #2
   10628:	e5891000 	str	r1, [r9]
   1062c:	e5913000 	ldr	r3, [r1]
   10630:	e0832002 	add	r2, r3, r2
   10634:	e5891000 	str	r1, [r9]
   10638:	e5812000 	str	r2, [r1]
   1063c:	e589d000 	str	sp, [r9]
   10640:	e58d0004 	str	r0, [sp, #4]
   10644:	01a00000 	moveq	r0, r0
   10648:	e589f000 	str	pc, [r9]
   1064c:	e589b000 	str	fp, [r9]
   10650:	e51b000c 	ldr	r0, [fp, #-12]
   10654:	e2800001 	add	r0, r0, #1
   10658:	e589b000 	str	fp, [r9]
   1065c:	e50b000c 	str	r0, [fp, #-12]
   10660:	eaffffd0 	b	105a8 <app_matrix+0x2f4>
   10664:	01a00000 	moveq	r0, r0
   10668:	e589f000 	str	pc, [r9]
   1066c:	eaffffff 	b	10670 <app_matrix+0x3bc>
   10670:	01a00000 	moveq	r0, r0
   10674:	e589f000 	str	pc, [r9]
   10678:	e589b000 	str	fp, [r9]
   1067c:	e51b0008 	ldr	r0, [fp, #-8]
   10680:	e2800001 	add	r0, r0, #1
   10684:	e589b000 	str	fp, [r9]
   10688:	e50b0008 	str	r0, [fp, #-8]
   1068c:	eaffffab 	b	10540 <app_matrix+0x28c>
   10690:	01a00000 	moveq	r0, r0
   10694:	e589f000 	str	pc, [r9]
   10698:	eaffffff 	b	1069c <app_matrix+0x3e8>
   1069c:	01a00000 	moveq	r0, r0
   106a0:	e589f000 	str	pc, [r9]
   106a4:	e589b000 	str	fp, [r9]
   106a8:	e51b0004 	ldr	r0, [fp, #-4]
   106ac:	e2800001 	add	r0, r0, #1
   106b0:	e589b000 	str	fp, [r9]
   106b4:	e50b0004 	str	r0, [fp, #-4]
   106b8:	eaffff93 	b	1050c <app_matrix+0x258>
   106bc:	01a00000 	moveq	r0, r0
   106c0:	e589f000 	str	pc, [r9]
   106c4:	e1a0d00b 	mov	sp, fp
   106c8:	e8bd8800 	pop	{fp, pc}

000106cc <dummy>:
   106cc:	e12fff1e 	bx	lr

000106d0 <__init_ssp>:
   106d0:	e12fff1e 	bx	lr

000106d4 <__init_libc>:
   106d4:	e92d4df0 	push	{r4, r5, r6, r7, r8, sl, fp, lr}
   106d8:	e28db018 	add	fp, sp, #24
   106dc:	e24dd0b0 	sub	sp, sp, #176	; 0xb0
   106e0:	e28d6018 	add	r6, sp, #24
   106e4:	e1a04001 	mov	r4, r1
   106e8:	e1a05000 	mov	r5, r0
   106ec:	e1a00006 	mov	r0, r6
   106f0:	e3a01000 	mov	r1, #0
   106f4:	e3a02098 	mov	r2, #152	; 0x98
   106f8:	eb0000c9 	bl	10a24 <memset>
   106fc:	e3050038 	movw	r0, #20536	; 0x5038
   10700:	e3400002 	movt	r0, #2
   10704:	e5805000 	str	r5, [r0]
   10708:	e4950004 	ldr	r0, [r5], #4
   1070c:	e3500000 	cmp	r0, #0
   10710:	1afffffc 	bne	10708 <__init_libc+0x34>
   10714:	e305814c 	movw	r8, #20812	; 0x514c
   10718:	e3408002 	movt	r8, #2
   1071c:	e5885010 	str	r5, [r8, #16]
   10720:	e4950004 	ldr	r0, [r5], #4
   10724:	e3500000 	cmp	r0, #0
   10728:	0a00000a 	beq	10758 <__init_libc+0x84>
   1072c:	e3500025 	cmp	r0, #37	; 0x25
   10730:	95951000 	ldrls	r1, [r5]
   10734:	97861100 	strls	r1, [r6, r0, lsl #2]
   10738:	e5950004 	ldr	r0, [r5, #4]
   1073c:	e2855008 	add	r5, r5, #8
   10740:	e3500000 	cmp	r0, #0
   10744:	1afffff8 	bne	1072c <__init_libc+0x58>
   10748:	e59d0030 	ldr	r0, [sp, #48]	; 0x30
   1074c:	e59d2058 	ldr	r2, [sp, #88]	; 0x58
   10750:	e59d1098 	ldr	r1, [sp, #152]	; 0x98
   10754:	ea000002 	b	10764 <__init_libc+0x90>
   10758:	e3a00000 	mov	r0, #0
   1075c:	e3a01000 	mov	r1, #0
   10760:	e3a02000 	mov	r2, #0
   10764:	e3053148 	movw	r3, #20808	; 0x5148
   10768:	e3540000 	cmp	r4, #0
   1076c:	e3403002 	movt	r3, #2
   10770:	e5880024 	str	r0, [r8, #36]	; 0x24
   10774:	e5832000 	str	r2, [r3]
   10778:	e305218c 	movw	r2, #20876	; 0x518c
   1077c:	e3402002 	movt	r2, #2
   10780:	e5821000 	str	r1, [r2]
   10784:	0a000010 	beq	107cc <__init_libc+0xf8>
   10788:	e3050028 	movw	r0, #20520	; 0x5028
   1078c:	e2841001 	add	r1, r4, #1
   10790:	e3400002 	movt	r0, #2
   10794:	e5804000 	str	r4, [r0]
   10798:	e3050024 	movw	r0, #20516	; 0x5024
   1079c:	e3400002 	movt	r0, #2
   107a0:	e5804000 	str	r4, [r0]
   107a4:	ea000000 	b	107ac <__init_libc+0xd8>
   107a8:	e2811001 	add	r1, r1, #1
   107ac:	e5512001 	ldrb	r2, [r1, #-1]
   107b0:	e352002f 	cmp	r2, #47	; 0x2f
   107b4:	0a000002 	beq	107c4 <__init_libc+0xf0>
   107b8:	e3520000 	cmp	r2, #0
   107bc:	1afffff9 	bne	107a8 <__init_libc+0xd4>
   107c0:	ea000001 	b	107cc <__init_libc+0xf8>
   107c4:	e5801000 	str	r1, [r0]
   107c8:	eafffff6 	b	107a8 <__init_libc+0xd4>
   107cc:	e28d0018 	add	r0, sp, #24
   107d0:	eb00014f 	bl	10d14 <__init_tls>
   107d4:	e59d007c 	ldr	r0, [sp, #124]	; 0x7c
   107d8:	ebffffbc 	bl	106d0 <__init_ssp>
   107dc:	e59d0044 	ldr	r0, [sp, #68]	; 0x44
   107e0:	e59d1048 	ldr	r1, [sp, #72]	; 0x48
   107e4:	e1500001 	cmp	r0, r1
   107e8:	1a000006 	bne	10808 <__init_libc+0x134>
   107ec:	e59d004c 	ldr	r0, [sp, #76]	; 0x4c
   107f0:	e59d1050 	ldr	r1, [sp, #80]	; 0x50
   107f4:	e1500001 	cmp	r0, r1
   107f8:	1a000002 	bne	10808 <__init_libc+0x134>
   107fc:	e59d0074 	ldr	r0, [sp, #116]	; 0x74
   10800:	e3500000 	cmp	r0, #0
   10804:	0a000031 	beq	108d0 <__init_libc+0x1fc>
   10808:	e3010b18 	movw	r0, #6936	; 0x1b18
   1080c:	e3a070a8 	mov	r7, #168	; 0xa8
   10810:	e3400001 	movt	r0, #1
   10814:	f4600acd 	vld1.64	{d16-d17}, [r0]!
   10818:	e3a02000 	mov	r2, #0
   1081c:	edd02b00 	vldr	d18, [r0]
   10820:	e1a0000d 	mov	r0, sp
   10824:	e1a01000 	mov	r1, r0
   10828:	f4410acd 	vst1.64	{d16-d17}, [r1]!
   1082c:	edc12b00 	vstr	d18, [r1]
   10830:	e3a01003 	mov	r1, #3
   10834:	ef000000 	svc	0x00000000
   10838:	e5dd0006 	ldrb	r0, [sp, #6]
   1083c:	e3100020 	tst	r0, #32
   10840:	0a000008 	beq	10868 <__init_libc+0x194>
   10844:	e3010b30 	movw	r0, #6960	; 0x1b30
   10848:	e3001002 	movw	r1, #2
   1084c:	e3400001 	movt	r0, #1
   10850:	e3401002 	movt	r1, #2
   10854:	e3a07005 	mov	r7, #5
   10858:	ef000000 	svc	0x00000000
   1085c:	e3500000 	cmp	r0, #0
   10860:	aa000000 	bge	10868 <__init_libc+0x194>
   10864:	e7f000f0 	.word	0xe7f000f0
   10868:	e5dd000e 	ldrb	r0, [sp, #14]
   1086c:	e3100020 	tst	r0, #32
   10870:	0a000008 	beq	10898 <__init_libc+0x1c4>
   10874:	e3010b30 	movw	r0, #6960	; 0x1b30
   10878:	e3001002 	movw	r1, #2
   1087c:	e3400001 	movt	r0, #1
   10880:	e3401002 	movt	r1, #2
   10884:	e3a07005 	mov	r7, #5
   10888:	ef000000 	svc	0x00000000
   1088c:	e3500000 	cmp	r0, #0
   10890:	aa000000 	bge	10898 <__init_libc+0x1c4>
   10894:	e7f000f0 	.word	0xe7f000f0
   10898:	e5dd0016 	ldrb	r0, [sp, #22]
   1089c:	e3100020 	tst	r0, #32
   108a0:	0a000008 	beq	108c8 <__init_libc+0x1f4>
   108a4:	e3010b30 	movw	r0, #6960	; 0x1b30
   108a8:	e3001002 	movw	r1, #2
   108ac:	e3400001 	movt	r0, #1
   108b0:	e3401002 	movt	r1, #2
   108b4:	e3a07005 	mov	r7, #5
   108b8:	ef000000 	svc	0x00000000
   108bc:	e3500000 	cmp	r0, #0
   108c0:	aa000000 	bge	108c8 <__init_libc+0x1f4>
   108c4:	e7f000f0 	.word	0xe7f000f0
   108c8:	e3a00001 	mov	r0, #1
   108cc:	e5880008 	str	r0, [r8, #8]
   108d0:	e24bd018 	sub	sp, fp, #24
   108d4:	e8bd8df0 	pop	{r4, r5, r6, r7, r8, sl, fp, pc}

000108d8 <__libc_start_init>:
   108d8:	e92d4830 	push	{r4, r5, fp, lr}
   108dc:	e28db008 	add	fp, sp, #8
   108e0:	ebfffdfb 	bl	100d4 <_init>
   108e4:	e3014ff8 	movw	r4, #8184	; 0x1ff8
   108e8:	e3015ff4 	movw	r5, #8180	; 0x1ff4
   108ec:	e3404002 	movt	r4, #2
   108f0:	e3405002 	movt	r5, #2
   108f4:	e1550004 	cmp	r5, r4
   108f8:	2a000003 	bcs	1090c <__libc_start_init+0x34>
   108fc:	e4950004 	ldr	r0, [r5], #4
   10900:	e12fff30 	blx	r0
   10904:	e1550004 	cmp	r5, r4
   10908:	3afffffb 	bcc	108fc <__libc_start_init+0x24>
   1090c:	e8bd8830 	pop	{r4, r5, fp, pc}

00010910 <__libc_start_main>:
   10910:	e92d48f0 	push	{r4, r5, r6, r7, fp, lr}
   10914:	e28db010 	add	fp, sp, #16
   10918:	e1a04002 	mov	r4, r2
   1091c:	e1a05001 	mov	r5, r1
   10920:	e1a06000 	mov	r6, r0
   10924:	eb0000a0 	bl	10bac <__init_hardblare>
   10928:	e1a00004 	mov	r0, r4
   1092c:	e6901105 	ldr	r1, [r0], r5, lsl #2
   10930:	e2807004 	add	r7, r0, #4
   10934:	e1a00007 	mov	r0, r7
   10938:	ebffff65 	bl	106d4 <__init_libc>
   1093c:	ebffffe5 	bl	108d8 <__libc_start_init>
   10940:	e1a00005 	mov	r0, r5
   10944:	e1a01004 	mov	r1, r4
   10948:	e1a02007 	mov	r2, r7
   1094c:	e12fff36 	blx	r6
   10950:	e1a0e00f 	mov	lr, pc
   10954:	eafffde1 	b	100e0 <exit>

00010958 <__libc_exit_fini>:
   10958:	01a00000 	moveq	r0, r0
   1095c:	e589f000 	str	pc, [r9]
   10960:	e92d4830 	push	{r4, r5, fp, lr}
   10964:	e3014ff8 	movw	r4, #8184	; 0x1ff8
   10968:	e3015ffc 	movw	r5, #8188	; 0x1ffc
   1096c:	e3404002 	movt	r4, #2
   10970:	e3405002 	movt	r5, #2
   10974:	e1550004 	cmp	r5, r4
   10978:	9a000005 	bls	10994 <__libc_exit_fini+0x3c>
   1097c:	01a00000 	moveq	r0, r0
   10980:	e589f000 	str	pc, [r9]
   10984:	e5350004 	ldr	r0, [r5, #-4]!
   10988:	e12fff30 	blx	r0
   1098c:	e1550004 	cmp	r5, r4
   10990:	8afffff9 	bhi	1097c <__libc_exit_fini+0x24>
   10994:	01a00000 	moveq	r0, r0
   10998:	e589f000 	str	pc, [r9]
   1099c:	e8bd4830 	pop	{r4, r5, fp, lr}
   109a0:	ea000458 	b	11b08 <_fini>

000109a4 <__funcs_on_exit>:
   109a4:	01a00000 	moveq	r0, r0
   109a8:	e589f000 	str	pc, [r9]
   109ac:	e12fff1e 	bx	lr

000109b0 <srand>:
   109b0:	01a00000 	moveq	r0, r0
   109b4:	e589f000 	str	pc, [r9]
   109b8:	e3051030 	movw	r1, #20528	; 0x5030
   109bc:	e3a03000 	mov	r3, #0
   109c0:	e3401002 	movt	r1, #2
   109c4:	e2402001 	sub	r2, r0, #1
   109c8:	e5893000 	str	r3, [r9]
   109cc:	e1c120f0 	strd	r2, [r1]
   109d0:	e12fff1e 	bx	lr

000109d4 <rand>:
   109d4:	01a00000 	moveq	r0, r0
   109d8:	e589f000 	str	pc, [r9]
   109dc:	e92d4010 	push	{r4, lr}
   109e0:	e305c030 	movw	ip, #20528	; 0x5030
   109e4:	e307ef2d 	movw	lr, #32557	; 0x7f2d
   109e8:	e340c002 	movt	ip, #2
   109ec:	e344ec95 	movt	lr, #19605	; 0x4c95
   109f0:	e5893000 	str	r3, [r9]
   109f4:	e1cc20d0 	ldrd	r2, [ip]
   109f8:	e30f442d 	movw	r4, #62509	; 0xf42d
   109fc:	e3454851 	movt	r4, #22609	; 0x5851
   10a00:	e0810e92 	umull	r0, r1, r2, lr
   10a04:	e2900001 	adds	r0, r0, #1
   10a08:	e0211492 	mla	r1, r2, r4, r1
   10a0c:	e0211e93 	mla	r1, r3, lr, r1
   10a10:	e2a11000 	adc	r1, r1, #0
   10a14:	e5891000 	str	r1, [r9]
   10a18:	e1cc00f0 	strd	r0, [ip]
   10a1c:	e1a000a1 	lsr	r0, r1, #1
   10a20:	e8bd8010 	pop	{r4, pc}

00010a24 <memset>:
   10a24:	01a00000 	moveq	r0, r0
   10a28:	e589f000 	str	pc, [r9]
   10a2c:	e92d4800 	push	{fp, lr}
   10a30:	e3520000 	cmp	r2, #0
   10a34:	0a00004a 	beq	10b64 <memset+0x140>
   10a38:	01a00000 	moveq	r0, r0
   10a3c:	e589f000 	str	pc, [r9]
   10a40:	e0803002 	add	r3, r0, r2
   10a44:	e3520003 	cmp	r2, #3
   10a48:	e5431001 	strb	r1, [r3, #-1]
   10a4c:	e5c01000 	strb	r1, [r0]
   10a50:	3a000043 	bcc	10b64 <memset+0x140>
   10a54:	01a00000 	moveq	r0, r0
   10a58:	e589f000 	str	pc, [r9]
   10a5c:	e3520007 	cmp	r2, #7
   10a60:	e5431002 	strb	r1, [r3, #-2]
   10a64:	e5c01001 	strb	r1, [r0, #1]
   10a68:	e5431003 	strb	r1, [r3, #-3]
   10a6c:	e5c01002 	strb	r1, [r0, #2]
   10a70:	3a00003b 	bcc	10b64 <memset+0x140>
   10a74:	01a00000 	moveq	r0, r0
   10a78:	e589f000 	str	pc, [r9]
   10a7c:	e3520009 	cmp	r2, #9
   10a80:	e5431004 	strb	r1, [r3, #-4]
   10a84:	e5c01003 	strb	r1, [r0, #3]
   10a88:	3a000035 	bcc	10b64 <memset+0x140>
   10a8c:	01a00000 	moveq	r0, r0
   10a90:	e589f000 	str	pc, [r9]
   10a94:	e3003101 	movw	r3, #257	; 0x101
   10a98:	e6ef1071 	uxtb	r1, r1
   10a9c:	e3403101 	movt	r3, #257	; 0x101
   10aa0:	e00e0391 	mul	lr, r1, r3
   10aa4:	e2603000 	rsb	r3, r0, #0
   10aa8:	e2031003 	and	r1, r3, #3
   10aac:	e1a03000 	mov	r3, r0
   10ab0:	e0422001 	sub	r2, r2, r1
   10ab4:	e7c1201f 	bfc	r2, #0, #2
   10ab8:	e7a3e001 	str	lr, [r3, r1]!
   10abc:	e3520009 	cmp	r2, #9
   10ac0:	e083c002 	add	ip, r3, r2
   10ac4:	e589c000 	str	ip, [r9]
   10ac8:	e50ce004 	str	lr, [ip, #-4]
   10acc:	3a000024 	bcc	10b64 <memset+0x140>
   10ad0:	01a00000 	moveq	r0, r0
   10ad4:	e589f000 	str	pc, [r9]
   10ad8:	e3520019 	cmp	r2, #25
   10adc:	e5893000 	str	r3, [r9]
   10ae0:	e583e004 	str	lr, [r3, #4]
   10ae4:	e5893000 	str	r3, [r9]
   10ae8:	e583e008 	str	lr, [r3, #8]
   10aec:	e589c000 	str	ip, [r9]
   10af0:	e50ce00c 	str	lr, [ip, #-12]
   10af4:	e589c000 	str	ip, [r9]
   10af8:	e50ce008 	str	lr, [ip, #-8]
   10afc:	3a000018 	bcc	10b64 <memset+0x140>
   10b00:	01a00000 	moveq	r0, r0
   10b04:	e589f000 	str	pc, [r9]
   10b08:	eea0eb90 	vdup.32	q8, lr
   10b0c:	e283100c 	add	r1, r3, #12
   10b10:	f4410a8f 	vst1.32	{d16-d17}, [r1]
   10b14:	e24c101c 	sub	r1, ip, #28
   10b18:	f4410a8f 	vst1.32	{d16-d17}, [r1]
   10b1c:	e2031004 	and	r1, r3, #4
   10b20:	e381c018 	orr	ip, r1, #24
   10b24:	e042200c 	sub	r2, r2, ip
   10b28:	e3520020 	cmp	r2, #32
   10b2c:	38bd8800 	popcc	{fp, pc}
   10b30:	ee00eb90 	vmov.32	d16[0], lr
   10b34:	e083100c 	add	r1, r3, ip
   10b38:	ee20eb90 	vmov.32	d16[1], lr
   10b3c:	f26011b0 	vorr	d17, d16, d16
   10b40:	01a00000 	moveq	r0, r0
   10b44:	e589f000 	str	pc, [r9]
   10b48:	e2813020 	add	r3, r1, #32
   10b4c:	f4410acd 	vst1.64	{d16-d17}, [r1]!
   10b50:	e2422020 	sub	r2, r2, #32
   10b54:	f4410acf 	vst1.64	{d16-d17}, [r1]
   10b58:	e352001f 	cmp	r2, #31
   10b5c:	e1a01003 	mov	r1, r3
   10b60:	8afffff6 	bhi	10b40 <memset+0x11c>
   10b64:	01a00000 	moveq	r0, r0
   10b68:	e589f000 	str	pc, [r9]
   10b6c:	e8bd8800 	pop	{fp, pc}

00010b70 <time>:
   10b70:	01a00000 	moveq	r0, r0
   10b74:	e589f000 	str	pc, [r9]
   10b78:	e92d4010 	push	{r4, lr}
   10b7c:	e24dd008 	sub	sp, sp, #8
   10b80:	e1a04000 	mov	r4, r0
   10b84:	e1a0100d 	mov	r1, sp
   10b88:	e3a00000 	mov	r0, #0
   10b8c:	eb000219 	bl	113f8 <__clock_gettime>
   10b90:	e589d000 	str	sp, [r9]
   10b94:	e59d0000 	ldr	r0, [sp]
   10b98:	e3540000 	cmp	r4, #0
   10b9c:	e5894000 	str	r4, [r9]
   10ba0:	15840000 	strne	r0, [r4]
   10ba4:	e28dd008 	add	sp, sp, #8
   10ba8:	e8bd8010 	pop	{r4, pc}

00010bac <__init_hardblare>:
   10bac:	e92d4800 	push	{fp, lr}
   10bb0:	e1a0b00d 	mov	fp, sp
   10bb4:	e24dd010 	sub	sp, sp, #16
   10bb8:	e3010b3a 	movw	r0, #6970	; 0x1b3a
   10bbc:	e3011002 	movw	r1, #4098	; 0x1002
   10bc0:	e3400001 	movt	r0, #1
   10bc4:	e3401010 	movt	r1, #16
   10bc8:	eb0000dd 	bl	10f44 <open_hardblare>
   10bcc:	e3700001 	cmn	r0, #1
   10bd0:	0a000010 	beq	10c18 <__init_hardblare+0x6c>
   10bd4:	e3002000 	movw	r2, #0
   10bd8:	e3a01000 	mov	r1, #0
   10bdc:	e34423c1 	movt	r2, #17345	; 0x43c1
   10be0:	e3a03001 	mov	r3, #1
   10be4:	e58d2008 	str	r2, [sp, #8]
   10be8:	e3a02003 	mov	r2, #3
   10bec:	e58d100c 	str	r1, [sp, #12]
   10bf0:	e3a01a01 	mov	r1, #4096	; 0x1000
   10bf4:	e58d0000 	str	r0, [sp]
   10bf8:	e3a00000 	mov	r0, #0
   10bfc:	eb00010b 	bl	11030 <__mmap_hardblare>
   10c00:	e3700001 	cmn	r0, #1
   10c04:	0a000003 	beq	10c18 <__init_hardblare+0x6c>
   10c08:	e3051190 	movw	r1, #20880	; 0x5190
   10c0c:	e3401002 	movt	r1, #2
   10c10:	e5810000 	str	r0, [r1]
   10c14:	e1a09000 	mov	r9, r0
   10c18:	e1a0d00b 	mov	sp, fp
   10c1c:	e8bd8800 	pop	{fp, pc}

00010c20 <__init_tp>:
   10c20:	e92d4890 	push	{r4, r7, fp, lr}
   10c24:	e28db008 	add	fp, sp, #8
   10c28:	e1a04000 	mov	r4, r0
   10c2c:	e48040a8 	str	r4, [r0], #168	; 0xa8
   10c30:	eb0001e9 	bl	113dc <__set_thread_area>
   10c34:	e3500000 	cmp	r0, #0
   10c38:	ba000010 	blt	10c80 <__init_tp+0x60>
   10c3c:	1a000003 	bne	10c50 <__init_tp+0x30>
   10c40:	e305014c 	movw	r0, #20812	; 0x514c
   10c44:	e3a01001 	mov	r1, #1
   10c48:	e3400002 	movt	r0, #2
   10c4c:	e5801000 	str	r1, [r0]
   10c50:	e284001c 	add	r0, r4, #28
   10c54:	e3a07c01 	mov	r7, #256	; 0x100
   10c58:	ef000000 	svc	0x00000000
   10c5c:	e584001c 	str	r0, [r4, #28]
   10c60:	e305014c 	movw	r0, #20812	; 0x514c
   10c64:	e3400002 	movt	r0, #2
   10c68:	e2800028 	add	r0, r0, #40	; 0x28
   10c6c:	e5840078 	str	r0, [r4, #120]	; 0x78
   10c70:	e2840064 	add	r0, r4, #100	; 0x64
   10c74:	e5840064 	str	r0, [r4, #100]	; 0x64
   10c78:	e3a00000 	mov	r0, #0
   10c7c:	e8bd8890 	pop	{r4, r7, fp, pc}
   10c80:	e3e00000 	mvn	r0, #0
   10c84:	e8bd8890 	pop	{r4, r7, fp, pc}

00010c88 <__copy_tls>:
   10c88:	e92d4df0 	push	{r4, r5, r6, r7, r8, sl, fp, lr}
   10c8c:	e28db018 	add	fp, sp, #24
   10c90:	e305814c 	movw	r8, #20812	; 0x514c
   10c94:	e3408002 	movt	r8, #2
   10c98:	e5982018 	ldr	r2, [r8, #24]
   10c9c:	e5981020 	ldr	r1, [r8, #32]
   10ca0:	e598301c 	ldr	r3, [r8, #28]
   10ca4:	e0806002 	add	r6, r0, r2
   10ca8:	e1e05001 	mvn	r5, r1
   10cac:	e5987014 	ldr	r7, [r8, #20]
   10cb0:	e086a105 	add	sl, r6, r5, lsl #2
   10cb4:	e3e060af 	mvn	r6, #175	; 0xaf
   10cb8:	e0466000 	sub	r6, r6, r0
   10cbc:	e2433001 	sub	r3, r3, #1
   10cc0:	e0033006 	and	r3, r3, r6
   10cc4:	e3570000 	cmp	r7, #0
   10cc8:	e0804003 	add	r4, r0, r3
   10ccc:	0a00000b 	beq	10d00 <__copy_tls+0x78>
   10cd0:	e0421101 	sub	r1, r2, r1, lsl #2
   10cd4:	e28460b0 	add	r6, r4, #176	; 0xb0
   10cd8:	e0805001 	add	r5, r0, r1
   10cdc:	e5970014 	ldr	r0, [r7, #20]
   10ce0:	e0860000 	add	r0, r6, r0
   10ce4:	e4850004 	str	r0, [r5], #4
   10ce8:	e9970006 	ldmib	r7, {r1, r2}
   10cec:	eb0000f5 	bl	110c8 <memcpy>
   10cf0:	e5977000 	ldr	r7, [r7]
   10cf4:	e3570000 	cmp	r7, #0
   10cf8:	1afffff7 	bne	10cdc <__copy_tls+0x54>
   10cfc:	e5981020 	ldr	r1, [r8, #32]
   10d00:	e1a00004 	mov	r0, r4
   10d04:	e58a1000 	str	r1, [sl]
   10d08:	e584a0ac 	str	sl, [r4, #172]	; 0xac
   10d0c:	e584a004 	str	sl, [r4, #4]
   10d10:	e8bd8df0 	pop	{r4, r5, r6, r7, r8, sl, fp, pc}

00010d14 <__init_tls>:
   10d14:	e92d4df0 	push	{r4, r5, r6, r7, r8, sl, fp, lr}
   10d18:	e28db018 	add	fp, sp, #24
   10d1c:	e5901014 	ldr	r1, [r0, #20]
   10d20:	e3510000 	cmp	r1, #0
   10d24:	0a000029 	beq	10dd0 <__init_tls+0xbc>
   10d28:	e590500c 	ldr	r5, [r0, #12]
   10d2c:	e300c000 	movw	ip, #0
   10d30:	e5906010 	ldr	r6, [r0, #16]
   10d34:	e3a02000 	mov	r2, #0
   10d38:	e340c000 	movt	ip, #0
   10d3c:	e3a00000 	mov	r0, #0
   10d40:	e1a03005 	mov	r3, r5
   10d44:	e5937000 	ldr	r7, [r3]
   10d48:	e1a04005 	mov	r4, r5
   10d4c:	e3570006 	cmp	r7, #6
   10d50:	0a000004 	beq	10d68 <__init_tls+0x54>
   10d54:	e3570002 	cmp	r7, #2
   10d58:	1a000004 	bne	10d70 <__init_tls+0x5c>
   10d5c:	e35c0000 	cmp	ip, #0
   10d60:	e1a0400c 	mov	r4, ip
   10d64:	0a000001 	beq	10d70 <__init_tls+0x5c>
   10d68:	e5932008 	ldr	r2, [r3, #8]
   10d6c:	e0442002 	sub	r2, r4, r2
   10d70:	e3570007 	cmp	r7, #7
   10d74:	01a00003 	moveq	r0, r3
   10d78:	e0833006 	add	r3, r3, r6
   10d7c:	e2511001 	subs	r1, r1, #1
   10d80:	1affffef 	bne	10d44 <__init_tls+0x30>
   10d84:	e3500000 	cmp	r0, #0
   10d88:	0a000010 	beq	10dd0 <__init_tls+0xbc>
   10d8c:	e5901008 	ldr	r1, [r0, #8]
   10d90:	e305703c 	movw	r7, #20540	; 0x503c
   10d94:	e3407002 	movt	r7, #2
   10d98:	e3a06001 	mov	r6, #1
   10d9c:	e0811002 	add	r1, r1, r2
   10da0:	e5871004 	str	r1, [r7, #4]
   10da4:	e5902010 	ldr	r2, [r0, #16]
   10da8:	e5872008 	str	r2, [r7, #8]
   10dac:	e5903014 	ldr	r3, [r0, #20]
   10db0:	e587300c 	str	r3, [r7, #12]
   10db4:	e590201c 	ldr	r2, [r0, #28]
   10db8:	e305014c 	movw	r0, #20812	; 0x514c
   10dbc:	e3400002 	movt	r0, #2
   10dc0:	e5806020 	str	r6, [r0, #32]
   10dc4:	e5872010 	str	r2, [r7, #16]
   10dc8:	e5807014 	str	r7, [r0, #20]
   10dcc:	ea000004 	b	10de4 <__init_tls+0xd0>
   10dd0:	e305003c 	movw	r0, #20540	; 0x503c
   10dd4:	e3400002 	movt	r0, #2
   10dd8:	e5901004 	ldr	r1, [r0, #4]
   10ddc:	e590300c 	ldr	r3, [r0, #12]
   10de0:	e5902010 	ldr	r2, [r0, #16]
   10de4:	e0810003 	add	r0, r1, r3
   10de8:	e2421001 	sub	r1, r2, #1
   10dec:	e2600000 	rsb	r0, r0, #0
   10df0:	e3520003 	cmp	r2, #3
   10df4:	e0010000 	and	r0, r1, r0
   10df8:	e305103c 	movw	r1, #20540	; 0x503c
   10dfc:	e0800003 	add	r0, r0, r3
   10e00:	e3401002 	movt	r1, #2
   10e04:	93a02004 	movls	r2, #4
   10e08:	e581000c 	str	r0, [r1, #12]
   10e0c:	e0820000 	add	r0, r2, r0
   10e10:	95812010 	strls	r2, [r1, #16]
   10e14:	e28010bb 	add	r1, r0, #187	; 0xbb
   10e18:	e305814c 	movw	r8, #20812	; 0x514c
   10e1c:	e7c1101f 	bfc	r1, #0, #2
   10e20:	e3408002 	movt	r8, #2
   10e24:	e35100f5 	cmp	r1, #245	; 0xf5
   10e28:	e5881018 	str	r1, [r8, #24]
   10e2c:	e588201c 	str	r2, [r8, #28]
   10e30:	3a000009 	bcc	10e5c <__init_tls+0x148>
   10e34:	e3a070c0 	mov	r7, #192	; 0xc0
   10e38:	e3a00000 	mov	r0, #0
   10e3c:	e3a02003 	mov	r2, #3
   10e40:	e3a03022 	mov	r3, #34	; 0x22
   10e44:	e3e04000 	mvn	r4, #0
   10e48:	e3a05000 	mov	r5, #0
   10e4c:	ef000000 	svc	0x00000000
   10e50:	e5981018 	ldr	r1, [r8, #24]
   10e54:	e598201c 	ldr	r2, [r8, #28]
   10e58:	ea000001 	b	10e64 <__init_tls+0x150>
   10e5c:	e3050054 	movw	r0, #20564	; 0x5054
   10e60:	e3400002 	movt	r0, #2
   10e64:	e3e030af 	mvn	r3, #175	; 0xaf
   10e68:	e2422001 	sub	r2, r2, #1
   10e6c:	e0435000 	sub	r5, r3, r0
   10e70:	e5983020 	ldr	r3, [r8, #32]
   10e74:	e0022005 	and	r2, r2, r5
   10e78:	e0806001 	add	r6, r0, r1
   10e7c:	e0804002 	add	r4, r0, r2
   10e80:	e1e02003 	mvn	r2, r3
   10e84:	e5987014 	ldr	r7, [r8, #20]
   10e88:	e086a102 	add	sl, r6, r2, lsl #2
   10e8c:	e3570000 	cmp	r7, #0
   10e90:	0a00000b 	beq	10ec4 <__init_tls+0x1b0>
   10e94:	e0411103 	sub	r1, r1, r3, lsl #2
   10e98:	e28460b0 	add	r6, r4, #176	; 0xb0
   10e9c:	e0805001 	add	r5, r0, r1
   10ea0:	e5970014 	ldr	r0, [r7, #20]
   10ea4:	e0860000 	add	r0, r6, r0
   10ea8:	e4850004 	str	r0, [r5], #4
   10eac:	e9970006 	ldmib	r7, {r1, r2}
   10eb0:	eb000084 	bl	110c8 <memcpy>
   10eb4:	e5977000 	ldr	r7, [r7]
   10eb8:	e3570000 	cmp	r7, #0
   10ebc:	1afffff7 	bne	10ea0 <__init_tls+0x18c>
   10ec0:	e5983020 	ldr	r3, [r8, #32]
   10ec4:	e28400a8 	add	r0, r4, #168	; 0xa8
   10ec8:	e58a3000 	str	r3, [sl]
   10ecc:	e584a0ac 	str	sl, [r4, #172]	; 0xac
   10ed0:	e8840410 	stm	r4, {r4, sl}
   10ed4:	eb000140 	bl	113dc <__set_thread_area>
   10ed8:	e3500000 	cmp	r0, #0
   10edc:	ba00000a 	blt	10f0c <__init_tls+0x1f8>
   10ee0:	03a00001 	moveq	r0, #1
   10ee4:	e3a07c01 	mov	r7, #256	; 0x100
   10ee8:	05880000 	streq	r0, [r8]
   10eec:	e284001c 	add	r0, r4, #28
   10ef0:	ef000000 	svc	0x00000000
   10ef4:	e584001c 	str	r0, [r4, #28]
   10ef8:	e2880028 	add	r0, r8, #40	; 0x28
   10efc:	e5840078 	str	r0, [r4, #120]	; 0x78
   10f00:	e2840064 	add	r0, r4, #100	; 0x64
   10f04:	e5840064 	str	r0, [r4, #100]	; 0x64
   10f08:	e8bd8df0 	pop	{r4, r5, r6, r7, r8, sl, fp, pc}
   10f0c:	e7f000f0 	.word	0xe7f000f0
   10f10:	e8bd8df0 	pop	{r4, r5, r6, r7, r8, sl, fp, pc}

00010f14 <_Exit>:
   10f14:	01a00000 	moveq	r0, r0
   10f18:	e589f000 	str	pc, [r9]
   10f1c:	e92d4080 	push	{r7, lr}
   10f20:	e3a070f8 	mov	r7, #248	; 0xf8
   10f24:	e1a01000 	mov	r1, r0
   10f28:	ef000000 	svc	0x00000000
   10f2c:	e3a07001 	mov	r7, #1
   10f30:	01a00000 	moveq	r0, r0
   10f34:	e589f000 	str	pc, [r9]
   10f38:	e1a00001 	mov	r0, r1
   10f3c:	ef000000 	svc	0x00000000
   10f40:	eafffffa 	b	10f30 <_Exit+0x1c>

00010f44 <open_hardblare>:
   10f44:	e24dd008 	sub	sp, sp, #8
   10f48:	e92d4890 	push	{r4, r7, fp, lr}
   10f4c:	e28db008 	add	fp, sp, #8
   10f50:	e24dd010 	sub	sp, sp, #16
   10f54:	e1a04001 	mov	r4, r1
   10f58:	e1a01000 	mov	r1, r0
   10f5c:	e3140040 	tst	r4, #64	; 0x40
   10f60:	e58b300c 	str	r3, [fp, #12]
   10f64:	e58b2008 	str	r2, [fp, #8]
   10f68:	1a000005 	bne	10f84 <open_hardblare+0x40>
   10f6c:	e3040000 	movw	r0, #16384	; 0x4000
   10f70:	e3a03000 	mov	r3, #0
   10f74:	e3400040 	movt	r0, #64	; 0x40
   10f78:	e0042000 	and	r2, r4, r0
   10f7c:	e1520000 	cmp	r2, r0
   10f80:	1a000004 	bne	10f98 <open_hardblare+0x54>
   10f84:	e28b0008 	add	r0, fp, #8
   10f88:	e58d000c 	str	r0, [sp, #12]
   10f8c:	e3800004 	orr	r0, r0, #4
   10f90:	e58d000c 	str	r0, [sp, #12]
   10f94:	e59b3008 	ldr	r3, [fp, #8]
   10f98:	e3a00000 	mov	r0, #0
   10f9c:	e3842802 	orr	r2, r4, #131072	; 0x20000
   10fa0:	e58d0000 	str	r0, [sp]
   10fa4:	e58d0004 	str	r0, [sp, #4]
   10fa8:	e58d0008 	str	r0, [sp, #8]
   10fac:	e3a00005 	mov	r0, #5
   10fb0:	eb000106 	bl	113d0 <__syscall_cp>
   10fb4:	e1a03000 	mov	r3, r0
   10fb8:	e3140702 	tst	r4, #524288	; 0x80000
   10fbc:	0a000006 	beq	10fdc <open_hardblare+0x98>
   10fc0:	e3530000 	cmp	r3, #0
   10fc4:	ba000004 	blt	10fdc <open_hardblare+0x98>
   10fc8:	e3a070dd 	mov	r7, #221	; 0xdd
   10fcc:	e1a00003 	mov	r0, r3
   10fd0:	e3a01002 	mov	r1, #2
   10fd4:	e3a02001 	mov	r2, #1
   10fd8:	ef000000 	svc	0x00000000
   10fdc:	e1a00003 	mov	r0, r3
   10fe0:	eb000003 	bl	10ff4 <__syscall_ret_hardblare>
   10fe4:	e24bd008 	sub	sp, fp, #8
   10fe8:	e8bd4890 	pop	{r4, r7, fp, lr}
   10fec:	e28dd008 	add	sp, sp, #8
   10ff0:	e12fff1e 	bx	lr

00010ff4 <__syscall_ret_hardblare>:
   10ff4:	01a00000 	moveq	r0, r0
   10ff8:	e589f000 	str	pc, [r9]
   10ffc:	e30f1001 	movw	r1, #61441	; 0xf001
   11000:	e34f1fff 	movt	r1, #65535	; 0xffff
   11004:	e1500001 	cmp	r0, r1
   11008:	312fff1e 	bxcc	lr
   1100c:	e92d4010 	push	{r4, lr}
   11010:	e2604000 	rsb	r4, r0, #0
   11014:	eb00015c 	bl	1158c <__errno_location>
   11018:	e5890000 	str	r0, [r9]
   1101c:	e5804000 	str	r4, [r0]
   11020:	e3e00000 	mvn	r0, #0
   11024:	e8bd4010 	pop	{r4, lr}
   11028:	e12fff1e 	bx	lr

0001102c <__vm_wait_hardblare>:
   1102c:	e12fff1e 	bx	lr

00011030 <__mmap_hardblare>:
   11030:	e92d4df0 	push	{r4, r5, r6, r7, r8, sl, fp, lr}
   11034:	e28db018 	add	fp, sp, #24
   11038:	e59b5014 	ldr	r5, [fp, #20]
   1103c:	e1a0a000 	mov	sl, r0
   11040:	e59b7010 	ldr	r7, [fp, #16]
   11044:	e1a06001 	mov	r6, r1
   11048:	e1a08003 	mov	r8, r3
   1104c:	e1a00625 	lsr	r0, r5, #12
   11050:	e1a01007 	mov	r1, r7
   11054:	e7df1610 	bfi	r1, r0, #12, #20
   11058:	e3510000 	cmp	r1, #0
   1105c:	0a000002 	beq	1106c <__mmap_hardblare+0x3c>
   11060:	eb000149 	bl	1158c <__errno_location>
   11064:	e3a01016 	mov	r1, #22
   11068:	ea000003 	b	1107c <__mmap_hardblare+0x4c>
   1106c:	e3760106 	cmn	r6, #-2147483647	; 0x80000001
   11070:	3a000004 	bcc	11088 <__mmap_hardblare+0x58>
   11074:	eb000144 	bl	1158c <__errno_location>
   11078:	e3a0100c 	mov	r1, #12
   1107c:	e5801000 	str	r1, [r0]
   11080:	e3e00000 	mvn	r0, #0
   11084:	e8bd8df0 	pop	{r4, r5, r6, r7, r8, sl, fp, pc}
   11088:	e59b4008 	ldr	r4, [fp, #8]
   1108c:	e3180010 	tst	r8, #16
   11090:	0a000003 	beq	110a4 <__mmap_hardblare+0x74>
   11094:	e1a04002 	mov	r4, r2
   11098:	ebffffe3 	bl	1102c <__vm_wait_hardblare>
   1109c:	e1a02004 	mov	r2, r4
   110a0:	e59b4008 	ldr	r4, [fp, #8]
   110a4:	e1a00627 	lsr	r0, r7, #12
   110a8:	e3a070c0 	mov	r7, #192	; 0xc0
   110ac:	e1a01006 	mov	r1, r6
   110b0:	e1805a05 	orr	r5, r0, r5, lsl #20
   110b4:	e1a0000a 	mov	r0, sl
   110b8:	e1a03008 	mov	r3, r8
   110bc:	ef000000 	svc	0x00000000
   110c0:	eb000140 	bl	115c8 <__syscall_ret>
   110c4:	e8bd8df0 	pop	{r4, r5, r6, r7, r8, sl, fp, pc}

000110c8 <memcpy>:
   110c8:	e92d4011 	push	{r0, r4, lr}
   110cc:	e24dd01c 	sub	sp, sp, #28
   110d0:	e3520004 	cmp	r2, #4
   110d4:	3a0000b0 	bcc	1139c <copy_last_3_and_return>
   110d8:	e2613000 	rsb	r3, r1, #0
   110dc:	e2133003 	ands	r3, r3, #3
   110e0:	0a000007 	beq	11104 <src_aligned>
   110e4:	e1b0cf83 	lsls	ip, r3, #31
   110e8:	e0422003 	sub	r2, r2, r3
   110ec:	44d13001 	ldrbmi	r3, [r1], #1
   110f0:	24d14001 	ldrbcs	r4, [r1], #1
   110f4:	24d1c001 	ldrbcs	ip, [r1], #1
   110f8:	44c03001 	strbmi	r3, [r0], #1
   110fc:	24c04001 	strbcs	r4, [r0], #1
   11100:	24c0c001 	strbcs	ip, [r0], #1

00011104 <src_aligned>:
   11104:	e020c001 	eor	ip, r0, r1
   11108:	e31c0003 	tst	ip, #3
   1110c:	1a000027 	bne	111b0 <non_congruent>
   11110:	e88d0fe0 	stm	sp, {r5, r6, r7, r8, r9, sl, fp}
   11114:	e2603000 	rsb	r3, r0, #0
   11118:	e213301c 	ands	r3, r3, #28
   1111c:	0a00000a 	beq	1114c <cached_aligned32>
   11120:	e1530002 	cmp	r3, r2
   11124:	8202301c 	andhi	r3, r2, #28
   11128:	e1b0ce03 	lsls	ip, r3, #28
   1112c:	28b100f0 	ldmcs	r1!, {r4, r5, r6, r7}
   11130:	48b10300 	ldmmi	r1!, {r8, r9}
   11134:	28a000f0 	stmiacs	r0!, {r4, r5, r6, r7}
   11138:	48a00300 	stmiami	r0!, {r8, r9}
   1113c:	e3130004 	tst	r3, #4
   11140:	1491a004 	ldrne	sl, [r1], #4
   11144:	1480a004 	strne	sl, [r0], #4
   11148:	e0422003 	sub	r2, r2, r3

0001114c <cached_aligned32>:
   1114c:	e2522020 	subs	r2, r2, #32
   11150:	3a000004 	bcc	11168 <less_than_32_left>
   11154:	e8b10ff0 	ldm	r1!, {r4, r5, r6, r7, r8, r9, sl, fp}
   11158:	e2522020 	subs	r2, r2, #32
   1115c:	e8a00ff0 	stmia	r0!, {r4, r5, r6, r7, r8, r9, sl, fp}
   11160:	2afffffb 	bcs	11154 <cached_aligned32+0x8>
   11164:	e2822020 	add	r2, r2, #32

00011168 <less_than_32_left>:
   11168:	e312001f 	tst	r2, #31
   1116c:	0a00000c 	beq	111a4 <less_than_32_left+0x3c>
   11170:	e1b0ce02 	lsls	ip, r2, #28
   11174:	28b100f0 	ldmcs	r1!, {r4, r5, r6, r7}
   11178:	48b10300 	ldmmi	r1!, {r8, r9}
   1117c:	28a000f0 	stmiacs	r0!, {r4, r5, r6, r7}
   11180:	48a00300 	stmiami	r0!, {r8, r9}
   11184:	e1b0cf02 	lsls	ip, r2, #30
   11188:	24913004 	ldrcs	r3, [r1], #4
   1118c:	40d140b2 	ldrhmi	r4, [r1], #2
   11190:	24803004 	strcs	r3, [r0], #4
   11194:	40c040b2 	strhmi	r4, [r0], #2
   11198:	e3120001 	tst	r2, #1
   1119c:	15d13000 	ldrbne	r3, [r1]
   111a0:	15c03000 	strbne	r3, [r0]
   111a4:	e8bd0fe0 	pop	{r5, r6, r7, r8, r9, sl, fp}
   111a8:	e8bd4011 	pop	{r0, r4, lr}
   111ac:	e12fff1e 	bx	lr

000111b0 <non_congruent>:
   111b0:	e3520004 	cmp	r2, #4
   111b4:	3a000078 	bcc	1139c <copy_last_3_and_return>
   111b8:	e88d0fe0 	stm	sp, {r5, r6, r7, r8, r9, sl, fp}
   111bc:	e2605000 	rsb	r5, r0, #0
   111c0:	e2055003 	and	r5, r5, #3
   111c4:	e1a0c185 	lsl	ip, r5, #3
   111c8:	e26ce020 	rsb	lr, ip, #32
   111cc:	e4913004 	ldr	r3, [r1], #4
   111d0:	e2422004 	sub	r2, r2, #4
   111d4:	e1b05f85 	lsls	r5, r5, #31
   111d8:	44c03001 	strbmi	r3, [r0], #1
   111dc:	41a03423 	lsrmi	r3, r3, #8
   111e0:	24c03001 	strbcs	r3, [r0], #1
   111e4:	21a03423 	lsrcs	r3, r3, #8
   111e8:	24c03001 	strbcs	r3, [r0], #1
   111ec:	21a03423 	lsrcs	r3, r3, #8
   111f0:	e3520004 	cmp	r2, #4
   111f4:	3a000061 	bcc	11380 <partial_word_tail>
   111f8:	e310001c 	tst	r0, #28
   111fc:	0a000007 	beq	11220 <non_congruent+0x70>
   11200:	e4915004 	ldr	r5, [r1], #4
   11204:	e2422004 	sub	r2, r2, #4
   11208:	e1834e15 	orr	r4, r3, r5, lsl lr
   1120c:	e1a03c35 	lsr	r3, r5, ip
   11210:	e4804004 	str	r4, [r0], #4
   11214:	e3520004 	cmp	r2, #4
   11218:	2afffff6 	bcs	111f8 <non_congruent+0x48>
   1121c:	3a000057 	bcc	11380 <partial_word_tail>
   11220:	e2522020 	subs	r2, r2, #32
   11224:	3a00004a 	bcc	11354 <less_than_thirtytwo>
   11228:	e35c0018 	cmp	ip, #24
   1122c:	0a000031 	beq	112f8 <loop24>
   11230:	e35c0008 	cmp	ip, #8
   11234:	0a000017 	beq	11298 <loop8>

00011238 <loop16>:
   11238:	e491c004 	ldr	ip, [r1], #4
   1123c:	e1a0400c 	mov	r4, ip
   11240:	e8b10fe0 	ldm	r1!, {r5, r6, r7, r8, r9, sl, fp}
   11244:	e2522020 	subs	r2, r2, #32
   11248:	2491c004 	ldrcs	ip, [r1], #4
   1124c:	e1833804 	orr	r3, r3, r4, lsl #16
   11250:	e1a04824 	lsr	r4, r4, #16
   11254:	e1844805 	orr	r4, r4, r5, lsl #16
   11258:	e1a05825 	lsr	r5, r5, #16
   1125c:	e1855806 	orr	r5, r5, r6, lsl #16
   11260:	e1a06826 	lsr	r6, r6, #16
   11264:	e1866807 	orr	r6, r6, r7, lsl #16
   11268:	e1a07827 	lsr	r7, r7, #16
   1126c:	e1877808 	orr	r7, r7, r8, lsl #16
   11270:	e1a08828 	lsr	r8, r8, #16
   11274:	e1888809 	orr	r8, r8, r9, lsl #16
   11278:	e1a09829 	lsr	r9, r9, #16
   1127c:	e189980a 	orr	r9, r9, sl, lsl #16
   11280:	e1a0a82a 	lsr	sl, sl, #16
   11284:	e18aa80b 	orr	sl, sl, fp, lsl #16
   11288:	e8a007f8 	stmia	r0!, {r3, r4, r5, r6, r7, r8, r9, sl}
   1128c:	e1a0382b 	lsr	r3, fp, #16
   11290:	2affffe9 	bcs	1123c <loop16+0x4>
   11294:	ea00002e 	b	11354 <less_than_thirtytwo>

00011298 <loop8>:
   11298:	e491c004 	ldr	ip, [r1], #4
   1129c:	e1a0400c 	mov	r4, ip
   112a0:	e8b10fe0 	ldm	r1!, {r5, r6, r7, r8, r9, sl, fp}
   112a4:	e2522020 	subs	r2, r2, #32
   112a8:	2491c004 	ldrcs	ip, [r1], #4
   112ac:	e1833c04 	orr	r3, r3, r4, lsl #24
   112b0:	e1a04424 	lsr	r4, r4, #8
   112b4:	e1844c05 	orr	r4, r4, r5, lsl #24
   112b8:	e1a05425 	lsr	r5, r5, #8
   112bc:	e1855c06 	orr	r5, r5, r6, lsl #24
   112c0:	e1a06426 	lsr	r6, r6, #8
   112c4:	e1866c07 	orr	r6, r6, r7, lsl #24
   112c8:	e1a07427 	lsr	r7, r7, #8
   112cc:	e1877c08 	orr	r7, r7, r8, lsl #24
   112d0:	e1a08428 	lsr	r8, r8, #8
   112d4:	e1888c09 	orr	r8, r8, r9, lsl #24
   112d8:	e1a09429 	lsr	r9, r9, #8
   112dc:	e1899c0a 	orr	r9, r9, sl, lsl #24
   112e0:	e1a0a42a 	lsr	sl, sl, #8
   112e4:	e18aac0b 	orr	sl, sl, fp, lsl #24
   112e8:	e8a007f8 	stmia	r0!, {r3, r4, r5, r6, r7, r8, r9, sl}
   112ec:	e1a0342b 	lsr	r3, fp, #8
   112f0:	2affffe9 	bcs	1129c <loop8+0x4>
   112f4:	ea000016 	b	11354 <less_than_thirtytwo>

000112f8 <loop24>:
   112f8:	e491c004 	ldr	ip, [r1], #4
   112fc:	e1a0400c 	mov	r4, ip
   11300:	e8b10fe0 	ldm	r1!, {r5, r6, r7, r8, r9, sl, fp}
   11304:	e2522020 	subs	r2, r2, #32
   11308:	2491c004 	ldrcs	ip, [r1], #4
   1130c:	e1833404 	orr	r3, r3, r4, lsl #8
   11310:	e1a04c24 	lsr	r4, r4, #24
   11314:	e1844405 	orr	r4, r4, r5, lsl #8
   11318:	e1a05c25 	lsr	r5, r5, #24
   1131c:	e1855406 	orr	r5, r5, r6, lsl #8
   11320:	e1a06c26 	lsr	r6, r6, #24
   11324:	e1866407 	orr	r6, r6, r7, lsl #8
   11328:	e1a07c27 	lsr	r7, r7, #24
   1132c:	e1877408 	orr	r7, r7, r8, lsl #8
   11330:	e1a08c28 	lsr	r8, r8, #24
   11334:	e1888409 	orr	r8, r8, r9, lsl #8
   11338:	e1a09c29 	lsr	r9, r9, #24
   1133c:	e189940a 	orr	r9, r9, sl, lsl #8
   11340:	e1a0ac2a 	lsr	sl, sl, #24
   11344:	e18aa40b 	orr	sl, sl, fp, lsl #8
   11348:	e8a007f8 	stmia	r0!, {r3, r4, r5, r6, r7, r8, r9, sl}
   1134c:	e1a03c2b 	lsr	r3, fp, #24
   11350:	2affffe9 	bcs	112fc <loop24+0x4>

00011354 <less_than_thirtytwo>:
   11354:	e26ec020 	rsb	ip, lr, #32
   11358:	e2822020 	add	r2, r2, #32
   1135c:	e3520004 	cmp	r2, #4
   11360:	3a000006 	bcc	11380 <partial_word_tail>
   11364:	e4915004 	ldr	r5, [r1], #4
   11368:	e2422004 	sub	r2, r2, #4
   1136c:	e1834e15 	orr	r4, r3, r5, lsl lr
   11370:	e1a03c35 	lsr	r3, r5, ip
   11374:	e4804004 	str	r4, [r0], #4
   11378:	e3520004 	cmp	r2, #4
   1137c:	2afffff8 	bcs	11364 <less_than_thirtytwo+0x10>

00011380 <partial_word_tail>:
   11380:	e1b05e0e 	lsls	r5, lr, #28
   11384:	44c03001 	strbmi	r3, [r0], #1
   11388:	41a03423 	lsrmi	r3, r3, #8
   1138c:	24c03001 	strbcs	r3, [r0], #1
   11390:	21a03423 	lsrcs	r3, r3, #8
   11394:	24c03001 	strbcs	r3, [r0], #1
   11398:	e89d0fe0 	ldm	sp, {r5, r6, r7, r8, r9, sl, fp}

0001139c <copy_last_3_and_return>:
   1139c:	e1b02f82 	lsls	r2, r2, #31
   113a0:	44d12001 	ldrbmi	r2, [r1], #1
   113a4:	24d13001 	ldrbcs	r3, [r1], #1
   113a8:	25d1c000 	ldrbcs	ip, [r1]
   113ac:	44c02001 	strbmi	r2, [r0], #1
   113b0:	24c03001 	strbcs	r3, [r0], #1
   113b4:	25c0c000 	strbcs	ip, [r0]
   113b8:	e28dd01c 	add	sp, sp, #28
   113bc:	e8bd4011 	pop	{r0, r4, lr}
   113c0:	e12fff1e 	bx	lr

000113c4 <__syscall_cp_c>:
   113c4:	01a00000 	moveq	r0, r0
   113c8:	e589f000 	str	pc, [r9]
   113cc:	ea000073 	b	115a0 <__syscall>

000113d0 <__syscall_cp>:
   113d0:	01a00000 	moveq	r0, r0
   113d4:	e589f000 	str	pc, [r9]
   113d8:	eafffff9 	b	113c4 <__syscall_cp_c>

000113dc <__set_thread_area>:
   113dc:	01a00000 	moveq	r0, r0
   113e0:	e589f000 	str	pc, [r9]
   113e4:	e92d4080 	push	{r7, lr}
   113e8:	e3007005 	movw	r7, #5
   113ec:	e340700f 	movt	r7, #15
   113f0:	ef000000 	svc	0x00000000
   113f4:	e8bd8080 	pop	{r7, pc}

000113f8 <__clock_gettime>:
   113f8:	01a00000 	moveq	r0, r0
   113fc:	e589f000 	str	pc, [r9]
   11400:	e92d40b0 	push	{r4, r5, r7, lr}
   11404:	e1a05000 	mov	r5, r0
   11408:	e3020004 	movw	r0, #8196	; 0x2004
   1140c:	e3400002 	movt	r0, #2
   11410:	e1a04001 	mov	r4, r1
   11414:	e5890000 	str	r0, [r9]
   11418:	e5902000 	ldr	r2, [r0]
   1141c:	e3520000 	cmp	r2, #0
   11420:	0a00000f 	beq	11464 <__clock_gettime+0x6c>
   11424:	01a00000 	moveq	r0, r0
   11428:	e589f000 	str	pc, [r9]
   1142c:	e1a00005 	mov	r0, r5
   11430:	e1a01004 	mov	r1, r4
   11434:	e12fff32 	blx	r2
   11438:	e3500000 	cmp	r0, #0
   1143c:	0a000025 	beq	114d8 <__clock_gettime+0xe0>
   11440:	01a00000 	moveq	r0, r0
   11444:	e589f000 	str	pc, [r9]
   11448:	e3700016 	cmn	r0, #22
   1144c:	1a000004 	bne	11464 <__clock_gettime+0x6c>
   11450:	01a00000 	moveq	r0, r0
   11454:	e589f000 	str	pc, [r9]
   11458:	e3e00015 	mvn	r0, #21
   1145c:	e8bd40b0 	pop	{r4, r5, r7, lr}
   11460:	ea000058 	b	115c8 <__syscall_ret>
   11464:	01a00000 	moveq	r0, r0
   11468:	e589f000 	str	pc, [r9]
   1146c:	e3007107 	movw	r7, #263	; 0x107
   11470:	e1a00005 	mov	r0, r5
   11474:	e1a01004 	mov	r1, r4
   11478:	ef000000 	svc	0x00000000
   1147c:	e3700026 	cmn	r0, #38	; 0x26
   11480:	1a000004 	bne	11498 <__clock_gettime+0xa0>
   11484:	01a00000 	moveq	r0, r0
   11488:	e589f000 	str	pc, [r9]
   1148c:	e3e00015 	mvn	r0, #21
   11490:	e3550000 	cmp	r5, #0
   11494:	0a000003 	beq	114a8 <__clock_gettime+0xb0>
   11498:	01a00000 	moveq	r0, r0
   1149c:	e589f000 	str	pc, [r9]
   114a0:	e8bd40b0 	pop	{r4, r5, r7, lr}
   114a4:	ea000047 	b	115c8 <__syscall_ret>
   114a8:	01a00000 	moveq	r0, r0
   114ac:	e589f000 	str	pc, [r9]
   114b0:	e3a0704e 	mov	r7, #78	; 0x4e
   114b4:	e1a00004 	mov	r0, r4
   114b8:	e3a01000 	mov	r1, #0
   114bc:	ef000000 	svc	0x00000000
   114c0:	e3a01ffa 	mov	r1, #1000	; 0x3e8
   114c4:	e5894000 	str	r4, [r9]
   114c8:	e5940004 	ldr	r0, [r4, #4]
   114cc:	e0000190 	mul	r0, r0, r1
   114d0:	e5894000 	str	r4, [r9]
   114d4:	e5840004 	str	r0, [r4, #4]
   114d8:	01a00000 	moveq	r0, r0
   114dc:	e589f000 	str	pc, [r9]
   114e0:	e3a00000 	mov	r0, #0
   114e4:	e8bd80b0 	pop	{r4, r5, r7, pc}

000114e8 <cgt_init>:
   114e8:	01a00000 	moveq	r0, r0
   114ec:	e589f000 	str	pc, [r9]
   114f0:	e92d4830 	push	{r4, r5, fp, lr}
   114f4:	e1a04001 	mov	r4, r1
   114f8:	e3011b4d 	movw	r1, #6989	; 0x1b4d
   114fc:	e1a05000 	mov	r5, r0
   11500:	e3010b43 	movw	r0, #6979	; 0x1b43
   11504:	e3400001 	movt	r0, #1
   11508:	e3401001 	movt	r1, #1
   1150c:	eb00003b 	bl	11600 <__vdsosym>
   11510:	e30114e8 	movw	r1, #5352	; 0x14e8
   11514:	e1a02000 	mov	r2, r0
   11518:	e3020004 	movw	r0, #8196	; 0x2004
   1151c:	e3401001 	movt	r1, #1
   11520:	e3400002 	movt	r0, #2
   11524:	f57ff05b 	dmb	ish
   11528:	01a00000 	moveq	r0, r0
   1152c:	e589f000 	str	pc, [r9]
   11530:	e1903f9f 	ldrex	r3, [r0]
   11534:	e1530001 	cmp	r3, r1
   11538:	1a000004 	bne	11550 <cgt_init+0x68>
   1153c:	01a00000 	moveq	r0, r0
   11540:	e589f000 	str	pc, [r9]
   11544:	e1803f92 	strex	r3, r2, [r0]
   11548:	e3530000 	cmp	r3, #0
   1154c:	1afffff5 	bne	11528 <cgt_init+0x40>
   11550:	01a00000 	moveq	r0, r0
   11554:	e589f000 	str	pc, [r9]
   11558:	e3520000 	cmp	r2, #0
   1155c:	f57ff05b 	dmb	ish
   11560:	0a000005 	beq	1157c <cgt_init+0x94>
   11564:	01a00000 	moveq	r0, r0
   11568:	e589f000 	str	pc, [r9]
   1156c:	e1a00005 	mov	r0, r5
   11570:	e1a01004 	mov	r1, r4
   11574:	e8bd4830 	pop	{r4, r5, fp, lr}
   11578:	e12fff12 	bx	r2
   1157c:	01a00000 	moveq	r0, r0
   11580:	e589f000 	str	pc, [r9]
   11584:	e3e00025 	mvn	r0, #37	; 0x25
   11588:	e8bd8830 	pop	{r4, r5, fp, pc}

0001158c <__errno_location>:
   1158c:	01a00000 	moveq	r0, r0
   11590:	e589f000 	str	pc, [r9]
   11594:	ee1d0f70 	mrc	15, 0, r0, cr13, cr0, {3}
   11598:	e2400080 	sub	r0, r0, #128	; 0x80
   1159c:	e12fff1e 	bx	lr

000115a0 <__syscall>:
   115a0:	e1a0c00d 	mov	ip, sp
   115a4:	e92d00f0 	push	{r4, r5, r6, r7}
   115a8:	e1a07000 	mov	r7, r0
   115ac:	e1a00001 	mov	r0, r1
   115b0:	e1a01002 	mov	r1, r2
   115b4:	e1a02003 	mov	r2, r3
   115b8:	e89c0078 	ldm	ip, {r3, r4, r5, r6}
   115bc:	ef000000 	svc	0x00000000
   115c0:	e8bd00f0 	pop	{r4, r5, r6, r7}
   115c4:	e12fff1e 	bx	lr

000115c8 <__syscall_ret>:
   115c8:	01a00000 	moveq	r0, r0
   115cc:	e589f000 	str	pc, [r9]
   115d0:	e30f1001 	movw	r1, #61441	; 0xf001
   115d4:	e34f1fff 	movt	r1, #65535	; 0xffff
   115d8:	e1500001 	cmp	r0, r1
   115dc:	312fff1e 	bxcc	lr
   115e0:	e92d4010 	push	{r4, lr}
   115e4:	e2604000 	rsb	r4, r0, #0
   115e8:	ebffffe7 	bl	1158c <__errno_location>
   115ec:	e5890000 	str	r0, [r9]
   115f0:	e5804000 	str	r4, [r0]
   115f4:	e3e00000 	mvn	r0, #0
   115f8:	e8bd4010 	pop	{r4, lr}
   115fc:	e12fff1e 	bx	lr

00011600 <__vdsosym>:
   11600:	01a00000 	moveq	r0, r0
   11604:	e589f000 	str	pc, [r9]
   11608:	e92d4df0 	push	{r4, r5, r6, r7, r8, sl, fp, lr}
   1160c:	e24dd010 	sub	sp, sp, #16
   11610:	e589d000 	str	sp, [r9]
   11614:	e58d000c 	str	r0, [sp, #12]
   11618:	e305014c 	movw	r0, #20812	; 0x514c
   1161c:	e3400002 	movt	r0, #2
   11620:	e1a0c001 	mov	ip, r1
   11624:	e5890000 	str	r0, [r9]
   11628:	e5900010 	ldr	r0, [r0, #16]
   1162c:	e2800004 	add	r0, r0, #4
   11630:	ea000002 	b	11640 <__vdsosym+0x40>
   11634:	01a00000 	moveq	r0, r0
   11638:	e589f000 	str	pc, [r9]
   1163c:	e2800008 	add	r0, r0, #8
   11640:	01a00000 	moveq	r0, r0
   11644:	e589f000 	str	pc, [r9]
   11648:	e5890000 	str	r0, [r9]
   1164c:	e5101004 	ldr	r1, [r0, #-4]
   11650:	e3510000 	cmp	r1, #0
   11654:	0a0000fd 	beq	11a50 <__vdsosym+0x450>
   11658:	01a00000 	moveq	r0, r0
   1165c:	e589f000 	str	pc, [r9]
   11660:	e3510021 	cmp	r1, #33	; 0x21
   11664:	1afffff2 	bne	11634 <__vdsosym+0x34>
   11668:	01a00000 	moveq	r0, r0
   1166c:	e589f000 	str	pc, [r9]
   11670:	e5890000 	str	r0, [r9]
   11674:	e5901000 	ldr	r1, [r0]
   11678:	e3a00000 	mov	r0, #0
   1167c:	e3510000 	cmp	r1, #0
   11680:	0a0000f5 	beq	11a5c <__vdsosym+0x45c>
   11684:	01a00000 	moveq	r0, r0
   11688:	e589f000 	str	pc, [r9]
   1168c:	e5891000 	str	r1, [r9]
   11690:	e1d132bc 	ldrh	r3, [r1, #44]	; 0x2c
   11694:	e3530000 	cmp	r3, #0
   11698:	0a0000ef 	beq	11a5c <__vdsosym+0x45c>
   1169c:	01a00000 	moveq	r0, r0
   116a0:	e589f000 	str	pc, [r9]
   116a4:	e5891000 	str	r1, [r9]
   116a8:	e591201c 	ldr	r2, [r1, #28]
   116ac:	e3e06000 	mvn	r6, #0
   116b0:	e5891000 	str	r1, [r9]
   116b4:	e1d102ba 	ldrh	r0, [r1, #42]	; 0x2a
   116b8:	e3a05000 	mov	r5, #0
   116bc:	e0812002 	add	r2, r1, r2
   116c0:	e2827004 	add	r7, r2, #4
   116c4:	e3a02000 	mov	r2, #0
   116c8:	01a00000 	moveq	r0, r0
   116cc:	e589f000 	str	pc, [r9]
   116d0:	e5897000 	str	r7, [r9]
   116d4:	e5174004 	ldr	r4, [r7, #-4]
   116d8:	e3540002 	cmp	r4, #2
   116dc:	0a00000c 	beq	11714 <__vdsosym+0x114>
   116e0:	01a00000 	moveq	r0, r0
   116e4:	e589f000 	str	pc, [r9]
   116e8:	e3540001 	cmp	r4, #1
   116ec:	1a00000d 	bne	11728 <__vdsosym+0x128>
   116f0:	01a00000 	moveq	r0, r0
   116f4:	e589f000 	str	pc, [r9]
   116f8:	e5897000 	str	r7, [r9]
   116fc:	e5976000 	ldr	r6, [r7]
   11700:	e5897000 	str	r7, [r9]
   11704:	e5974004 	ldr	r4, [r7, #4]
   11708:	e0866001 	add	r6, r6, r1
   1170c:	e0466004 	sub	r6, r6, r4
   11710:	ea000004 	b	11728 <__vdsosym+0x128>
   11714:	01a00000 	moveq	r0, r0
   11718:	e589f000 	str	pc, [r9]
   1171c:	e5897000 	str	r7, [r9]
   11720:	e5972000 	ldr	r2, [r7]
   11724:	e0812002 	add	r2, r1, r2
   11728:	01a00000 	moveq	r0, r0
   1172c:	e589f000 	str	pc, [r9]
   11730:	e2855001 	add	r5, r5, #1
   11734:	e0877000 	add	r7, r7, r0
   11738:	e1550003 	cmp	r5, r3
   1173c:	3affffe1 	bcc	116c8 <__vdsosym+0xc8>
   11740:	01a00000 	moveq	r0, r0
   11744:	e589f000 	str	pc, [r9]
   11748:	e3a00000 	mov	r0, #0
   1174c:	e3520000 	cmp	r2, #0
   11750:	0a0000c1 	beq	11a5c <__vdsosym+0x45c>
   11754:	01a00000 	moveq	r0, r0
   11758:	e589f000 	str	pc, [r9]
   1175c:	e3760001 	cmn	r6, #1
   11760:	e5892000 	str	r2, [r9]
   11764:	15923000 	ldrne	r3, [r2]
   11768:	13530000 	cmpne	r3, #0
   1176c:	0a0000ba 	beq	11a5c <__vdsosym+0x45c>
   11770:	01a00000 	moveq	r0, r0
   11774:	e589f000 	str	pc, [r9]
   11778:	e2820004 	add	r0, r2, #4
   1177c:	e3a08000 	mov	r8, #0
   11780:	e3e012f9 	mvn	r1, #-1879048177	; 0x9000000f
   11784:	e3a0a000 	mov	sl, #0
   11788:	e3a05000 	mov	r5, #0
   1178c:	e3a07000 	mov	r7, #0
   11790:	e3a04000 	mov	r4, #0
   11794:	01a00000 	moveq	r0, r0
   11798:	e589f000 	str	pc, [r9]
   1179c:	e5890000 	str	r0, [r9]
   117a0:	e5902000 	ldr	r2, [r0]
   117a4:	e3530005 	cmp	r3, #5
   117a8:	e0822006 	add	r2, r2, r6
   117ac:	da00000c 	ble	117e4 <__vdsosym+0x1e4>
   117b0:	01a00000 	moveq	r0, r0
   117b4:	e589f000 	str	pc, [r9]
   117b8:	e3530006 	cmp	r3, #6
   117bc:	0a000011 	beq	11808 <__vdsosym+0x208>
   117c0:	01a00000 	moveq	r0, r0
   117c4:	e589f000 	str	pc, [r9]
   117c8:	e1530001 	cmp	r3, r1
   117cc:	0a000011 	beq	11818 <__vdsosym+0x218>
   117d0:	01a00000 	moveq	r0, r0
   117d4:	e589f000 	str	pc, [r9]
   117d8:	e3730249 	cmn	r3, #-1879048188	; 0x90000004
   117dc:	01a08002 	moveq	r8, r2
   117e0:	ea000013 	b	11834 <__vdsosym+0x234>
   117e4:	01a00000 	moveq	r0, r0
   117e8:	e589f000 	str	pc, [r9]
   117ec:	e3530004 	cmp	r3, #4
   117f0:	0a00000c 	beq	11828 <__vdsosym+0x228>
   117f4:	01a00000 	moveq	r0, r0
   117f8:	e589f000 	str	pc, [r9]
   117fc:	e3530005 	cmp	r3, #5
   11800:	01a04002 	moveq	r4, r2
   11804:	ea00000a 	b	11834 <__vdsosym+0x234>
   11808:	01a00000 	moveq	r0, r0
   1180c:	e589f000 	str	pc, [r9]
   11810:	e1a07002 	mov	r7, r2
   11814:	ea000006 	b	11834 <__vdsosym+0x234>
   11818:	01a00000 	moveq	r0, r0
   1181c:	e589f000 	str	pc, [r9]
   11820:	e1a0a002 	mov	sl, r2
   11824:	ea000002 	b	11834 <__vdsosym+0x234>
   11828:	01a00000 	moveq	r0, r0
   1182c:	e589f000 	str	pc, [r9]
   11830:	e1a05002 	mov	r5, r2
   11834:	01a00000 	moveq	r0, r0
   11838:	e589f000 	str	pc, [r9]
   1183c:	e5890000 	str	r0, [r9]
   11840:	e5903004 	ldr	r3, [r0, #4]
   11844:	e2800008 	add	r0, r0, #8
   11848:	e3530000 	cmp	r3, #0
   1184c:	1affffd0 	bne	11794 <__vdsosym+0x194>
   11850:	01a00000 	moveq	r0, r0
   11854:	e589f000 	str	pc, [r9]
   11858:	e3a00000 	mov	r0, #0
   1185c:	e3540000 	cmp	r4, #0
   11860:	0a00007d 	beq	11a5c <__vdsosym+0x45c>
   11864:	01a00000 	moveq	r0, r0
   11868:	e589f000 	str	pc, [r9]
   1186c:	e3570000 	cmp	r7, #0
   11870:	13550000 	cmpne	r5, #0
   11874:	0a000078 	beq	11a5c <__vdsosym+0x45c>
   11878:	01a00000 	moveq	r0, r0
   1187c:	e589f000 	str	pc, [r9]
   11880:	e3580000 	cmp	r8, #0
   11884:	e589d000 	str	sp, [r9]
   11888:	e58d4008 	str	r4, [sp, #8]
   1188c:	03a0a000 	moveq	sl, #0
   11890:	e589d000 	str	sp, [r9]
   11894:	e58d8000 	str	r8, [sp]
   11898:	e589d000 	str	sp, [r9]
   1189c:	e58da004 	str	sl, [sp, #4]
   118a0:	e5895000 	str	r5, [r9]
   118a4:	e5951004 	ldr	r1, [r5, #4]
   118a8:	e3510000 	cmp	r1, #0
   118ac:	0a00006a 	beq	11a5c <__vdsosym+0x45c>
   118b0:	01a00000 	moveq	r0, r0
   118b4:	e589f000 	str	pc, [r9]
   118b8:	e3a08000 	mov	r8, #0
   118bc:	e3a03001 	mov	r3, #1
   118c0:	01a00000 	moveq	r0, r0
   118c4:	e589f000 	str	pc, [r9]
   118c8:	e087b208 	add	fp, r7, r8, lsl #4
   118cc:	e3a02027 	mov	r2, #39	; 0x27
   118d0:	e589b000 	str	fp, [r9]
   118d4:	e5db000c 	ldrb	r0, [fp, #12]
   118d8:	e200100f 	and	r1, r0, #15
   118dc:	e1120113 	tst	r2, r3, lsl r1
   118e0:	0a000051 	beq	11a2c <__vdsosym+0x42c>
   118e4:	01a00000 	moveq	r0, r0
   118e8:	e589f000 	str	pc, [r9]
   118ec:	e1a00220 	lsr	r0, r0, #4
   118f0:	e3001406 	movw	r1, #1030	; 0x406
   118f4:	e1110013 	tst	r1, r3, lsl r0
   118f8:	0a00004b 	beq	11a2c <__vdsosym+0x42c>
   118fc:	01a00000 	moveq	r0, r0
   11900:	e589f000 	str	pc, [r9]
   11904:	e589b000 	str	fp, [r9]
   11908:	e1db00be 	ldrh	r0, [fp, #14]
   1190c:	e3500000 	cmp	r0, #0
   11910:	0a000045 	beq	11a2c <__vdsosym+0x42c>
   11914:	01a00000 	moveq	r0, r0
   11918:	e589f000 	str	pc, [r9]
   1191c:	e5897000 	str	r7, [r9]
   11920:	e7970208 	ldr	r0, [r7, r8, lsl #4]
   11924:	e1a0400c 	mov	r4, ip
   11928:	e589d000 	str	sp, [r9]
   1192c:	e59d1008 	ldr	r1, [sp, #8]
   11930:	e0811000 	add	r1, r1, r0
   11934:	e1a0000c 	mov	r0, ip
   11938:	eb000052 	bl	11a88 <strcmp>
   1193c:	e3a03001 	mov	r3, #1
   11940:	e1a0c004 	mov	ip, r4
   11944:	e3500000 	cmp	r0, #0
   11948:	1a000037 	bne	11a2c <__vdsosym+0x42c>
   1194c:	01a00000 	moveq	r0, r0
   11950:	e589f000 	str	pc, [r9]
   11954:	e589d000 	str	sp, [r9]
   11958:	e59d0004 	ldr	r0, [sp, #4]
   1195c:	e3500000 	cmp	r0, #0
   11960:	0a000041 	beq	11a6c <__vdsosym+0x46c>
   11964:	01a00000 	moveq	r0, r0
   11968:	e589f000 	str	pc, [r9]
   1196c:	e589d000 	str	sp, [r9]
   11970:	e59d0004 	ldr	r0, [sp, #4]
   11974:	e0800088 	add	r0, r0, r8, lsl #1
   11978:	e5890000 	str	r0, [r9]
   1197c:	e1d010b0 	ldrh	r1, [r0]
   11980:	e589d000 	str	sp, [r9]
   11984:	e59d0000 	ldr	r0, [sp]
   11988:	ea000002 	b	11998 <__vdsosym+0x398>
   1198c:	01a00000 	moveq	r0, r0
   11990:	e589f000 	str	pc, [r9]
   11994:	e0800002 	add	r0, r0, r2
   11998:	01a00000 	moveq	r0, r0
   1199c:	e589f000 	str	pc, [r9]
   119a0:	e5890000 	str	r0, [r9]
   119a4:	e5d02002 	ldrb	r2, [r0, #2]
   119a8:	e3120001 	tst	r2, #1
   119ac:	1a000007 	bne	119d0 <__vdsosym+0x3d0>
   119b0:	01a00000 	moveq	r0, r0
   119b4:	e589f000 	str	pc, [r9]
   119b8:	e5890000 	str	r0, [r9]
   119bc:	e1d020b4 	ldrh	r2, [r0, #4]
   119c0:	e307efff 	movw	lr, #32767	; 0x7fff
   119c4:	e0222001 	eor	r2, r2, r1
   119c8:	e112000e 	tst	r2, lr
   119cc:	0a000006 	beq	119ec <__vdsosym+0x3ec>
   119d0:	01a00000 	moveq	r0, r0
   119d4:	e589f000 	str	pc, [r9]
   119d8:	e5890000 	str	r0, [r9]
   119dc:	e5902010 	ldr	r2, [r0, #16]
   119e0:	e3520000 	cmp	r2, #0
   119e4:	1affffe8 	bne	1198c <__vdsosym+0x38c>
   119e8:	ea00000f 	b	11a2c <__vdsosym+0x42c>
   119ec:	01a00000 	moveq	r0, r0
   119f0:	e589f000 	str	pc, [r9]
   119f4:	e5890000 	str	r0, [r9]
   119f8:	e590100c 	ldr	r1, [r0, #12]
   119fc:	e5890000 	str	r0, [r9]
   11a00:	e7900001 	ldr	r0, [r0, r1]
   11a04:	e589d000 	str	sp, [r9]
   11a08:	e59d1008 	ldr	r1, [sp, #8]
   11a0c:	e0811000 	add	r1, r1, r0
   11a10:	e589d000 	str	sp, [r9]
   11a14:	e59d000c 	ldr	r0, [sp, #12]
   11a18:	eb00001a 	bl	11a88 <strcmp>
   11a1c:	e3a03001 	mov	r3, #1
   11a20:	e1a0c004 	mov	ip, r4
   11a24:	e3500000 	cmp	r0, #0
   11a28:	0a00000f 	beq	11a6c <__vdsosym+0x46c>
   11a2c:	01a00000 	moveq	r0, r0
   11a30:	e589f000 	str	pc, [r9]
   11a34:	e5895000 	str	r5, [r9]
   11a38:	e5951004 	ldr	r1, [r5, #4]
   11a3c:	e2888001 	add	r8, r8, #1
   11a40:	e3a00000 	mov	r0, #0
   11a44:	e1580001 	cmp	r8, r1
   11a48:	3affff9c 	bcc	118c0 <__vdsosym+0x2c0>
   11a4c:	ea000002 	b	11a5c <__vdsosym+0x45c>
   11a50:	01a00000 	moveq	r0, r0
   11a54:	e589f000 	str	pc, [r9]
   11a58:	e3a00000 	mov	r0, #0
   11a5c:	01a00000 	moveq	r0, r0
   11a60:	e589f000 	str	pc, [r9]
   11a64:	e28dd010 	add	sp, sp, #16
   11a68:	e8bd8df0 	pop	{r4, r5, r6, r7, r8, sl, fp, pc}
   11a6c:	01a00000 	moveq	r0, r0
   11a70:	e589f000 	str	pc, [r9]
   11a74:	e589b000 	str	fp, [r9]
   11a78:	e59b0004 	ldr	r0, [fp, #4]
   11a7c:	e0800006 	add	r0, r0, r6
   11a80:	e28dd010 	add	sp, sp, #16
   11a84:	e8bd8df0 	pop	{r4, r5, r6, r7, r8, sl, fp, pc}

00011a88 <strcmp>:
   11a88:	01a00000 	moveq	r0, r0
   11a8c:	e589f000 	str	pc, [r9]
   11a90:	e5890000 	str	r0, [r9]
   11a94:	e5d02000 	ldrb	r2, [r0]
   11a98:	e5891000 	str	r1, [r9]
   11a9c:	e5d13000 	ldrb	r3, [r1]
   11aa0:	e3520000 	cmp	r2, #0
   11aa4:	0a000013 	beq	11af8 <strcmp+0x70>
   11aa8:	01a00000 	moveq	r0, r0
   11aac:	e589f000 	str	pc, [r9]
   11ab0:	e1520003 	cmp	r2, r3
   11ab4:	1a00000f 	bne	11af8 <strcmp+0x70>
   11ab8:	01a00000 	moveq	r0, r0
   11abc:	e589f000 	str	pc, [r9]
   11ac0:	e2800001 	add	r0, r0, #1
   11ac4:	e2811001 	add	r1, r1, #1
   11ac8:	01a00000 	moveq	r0, r0
   11acc:	e589f000 	str	pc, [r9]
   11ad0:	e5890000 	str	r0, [r9]
   11ad4:	e4d02001 	ldrb	r2, [r0], #1
   11ad8:	e5891000 	str	r1, [r9]
   11adc:	e4d13001 	ldrb	r3, [r1], #1
   11ae0:	e3520000 	cmp	r2, #0
   11ae4:	0a000003 	beq	11af8 <strcmp+0x70>
   11ae8:	01a00000 	moveq	r0, r0
   11aec:	e589f000 	str	pc, [r9]
   11af0:	e1520003 	cmp	r2, r3
   11af4:	0afffff3 	beq	11ac8 <strcmp+0x40>
   11af8:	01a00000 	moveq	r0, r0
   11afc:	e589f000 	str	pc, [r9]
   11b00:	e0420003 	sub	r0, r2, r3
   11b04:	e12fff1e 	bx	lr

Disassembly of section .fini:

00011b08 <_fini>:
   11b08:	e92d4001 	push	{r0, lr}
   11b0c:	e8bd4001 	pop	{r0, lr}
   11b10:	e12fff1e 	bx	lr
