# started on Fri Jun  2 18:51:39 2017


 Performance counter stats for './security-blowfish' (10 runs):

         13.997070      task-clock (msec)         #    0.892 CPUs utilized          
                 0      context-switches          #    0.000 K/sec                  
                 0      cpu-migrations            #    0.000 K/sec                  
                36      page-faults               #    0.003 M/sec                  
           4863168      cycles                    #    0.346 GHz                      (46.99%)
            258612      stalled-cycles-frontend   #    3.55% frontend cycles idle   
           2279050      stalled-cycles-backend    #   31.28% backend  cycles idle   
          10361127      instructions              #    1.42  insns per cycle        
                                                  #    0.22  stalled cycles per insn
            230618      branches                  #   16.407 M/sec                  
             25407      branch-misses             #   10.97% of all branches        
           3393480      L1-dcache-loads           #  241.425 M/sec                  
     <not counted>      L1-dcache-load-misses      (0.00%)
   <not supported>      LLC-loads                
   <not supported>      LLC-load-misses          

       0.015689241 seconds time elapsed                                          ( +-  0.12% )

