# started on Fri Jun  2 19:46:39 2017


 Performance counter stats for './network-dijkstra input.dat' (10 runs):

        362.473794      task-clock (msec)         #    0.954 CPUs utilized          
                 0      context-switches          #    0.000 K/sec                  
                 0      cpu-migrations            #    0.000 K/sec                  
                48      page-faults               #    0.133 K/sec                  
         240860356      cycles                    #    0.665 GHz                      (86.29%)
           2087046      stalled-cycles-frontend   #    0.87% frontend cycles idle     (86.19%)
          91327699      stalled-cycles-backend    #   37.96% backend  cycles idle     (86.19%)
         229859464      instructions              #    0.96  insns per cycle        
                                                  #    0.40  stalled cycles per insn  (87.20%)
          27701019      branches                  #   76.497 M/sec                    (88.91%)
            589088      branch-misses             #    2.13% of all branches          (88.95%)
          76433695      L1-dcache-loads           #  211.074 M/sec                    (88.95%)
            597897      L1-dcache-load-misses     #    0.78% of all L1-dcache hits    (74.62%)
   <not supported>      LLC-loads                
   <not supported>      LLC-load-misses          

       0.379815849 seconds time elapsed                                          ( +-  2.17% )

