# started on Fri Jun  2 19:45:43 2017


 Performance counter stats for './telecomm-CRC32 large.pcm' (10 runs):

       4133.762922      task-clock (msec)         #    0.943 CPUs utilized          
                 4      context-switches          #    0.001 K/sec                  
                 0      cpu-migrations            #    0.000 K/sec                  
                35      page-faults               #    0.008 K/sec                  
        2755791634      cycles                    #    0.663 GHz                    
           2031936      stalled-cycles-frontend   #    0.07% frontend cycles idle   
        1437800884      stalled-cycles-backend    #   51.98% backend  cycles idle   
        1831067131      instructions              #    0.66  insns per cycle        
                                                  #    0.79  stalled cycles per insn
         161713089      branches                  #   38.931 M/sec                  
            248955      branch-misses             #    0.15% of all branches        

       4.382664948 seconds time elapsed                                          ( +-  0.77% )

