00000000  00 00 00 00 00 80 08 1c  05 01 00 21 91 04 08 38  |...........!...8|
00000010  08 01 00 21 e9 05 86 39  ab 08 86 c5 8c cf db 0d  |...!...9........|
00000020  08 64 07 01 00 21 4f a3  04 08 b0 07 01 00 21 65  |.d...!O.......!e|
00000030  bb 04 08 f8 07 01 00 21  fd 8c cf db 0d 08 c0 05  |.......!........|
00000040  01 00 21 21 63 ab ca f5  db 0d 01 00 00 00 00 00  |..!!c...........|
00000050  00 00 00 00 00 00 00 00  00 00 00 00 00 00 00 00  |................|
*
00001000
