00000000  00 00 00 00 00 80 08 c0  05 01 00 21 f9 78 03 00  |...........!.x..|
00000010  97 06 ed 05 8d 04 08 fc  05 01 00 21 f9 78 03 00  |...........!.x..|
00000020  91 06 ed 05 8d 04 08 fc  05 01 00 21 f9 78 03 00  |...........!.x..|
*
00000060  91 06 86 ab 04 08 94 05  01 00 21 f9 7d 03 00 87  |..........!.}...|
00000070  04 08 b8 05 01 00 21 f9  7d 03 00 ab 04 08 94 05  |......!.}.......|
00000080  01 00 21 f9 7c 03 00 87  04 08 b8 05 01 00 21 f9  |..!.|.........!.|
00000090  7c 03 00 ab 04 08 94 05  01 00 21 f9 7b 03 00 87  ||.........!.{...|
000000a0  04 08 b8 05 01 00 21 f9  7b 03 00 ab 04 08 94 05  |......!.{.......|
000000b0  01 00 21 f9 7a 03 00 87  04 08 b8 05 01 00 21 f9  |..!.z.........!.|
000000c0  7a 03 00 ab 04 08 94 05  01 00 21 f9 79 03 00 87  |z.........!.y...|
000000d0  04 08 b8 05 01 00 21 f9  79 03 00 ab 04 01 00 00  |......!.y.......|
000000e0  00 00 00 00 00 00 00 00  00 00 00 00 00 00 00 00  |................|
*
00001000
